<?xml version="1.0" encoding="utf-8"?>
<!-- Generator: Adobe Illustrator 16.0.0, SVG Export Plug-In . SVG Version: 6.00 Build 0)  -->
<!DOCTYPE svg PUBLIC "-//W3C//DTD SVG 1.1//EN" "http://www.w3.org/Graphics/SVG/1.1/DTD/svg11.dtd">
<svg version="1.1" id="Layer_1" xmlns="http://www.w3.org/2000/svg" xmlns:xlink="http://www.w3.org/1999/xlink" x="0px" y="0px"
	 width="118px" height="18px" viewBox="0 0 118 18" enable-background="new 0 0 118 18" xml:space="preserve">
<text transform="matrix(1 0 0 1 14.25 15.125)"><tspan x="0" y="0" fill="#1F1A17" font-family="'InkFree'" font-size="17">ALL</tspan><tspan x="30.124" y="0" font-family="'InkFree'" font-size="17"> </tspan><tspan x="35.002" y="0" fill="#009442" font-family="'InkFree'" font-size="17">CHECK</tspan></text>
</svg>
