<?xml version="1.0" standalone="yes"?>
<svg xmlns="http://www.w3.org/2000/svg" width="1280" height="1130">
<path style="fill:#fcfbfb; stroke:none;" d="M0 0L0 1130L324 1130L324 906L275 900L257.692 950L228.947 1032L210 1088L202 1086L241.344 969L265 898C255.052 894.626 245.601 892.166 237 885.661C208.993 864.476 205.654 823.966 198 792C192.905 770.723 183.394 745.721 207 731.479C225.014 720.611 249.993 731.141 268 737C268 711.904 267.626 686.045 265.91 661C264.8 644.778 261.993 626.149 264.3 610C266.44 595.021 278.959 575.542 294 570.706C299.521 568.931 307.327 571.227 313 571.834C326.538 573.284 340.392 575.719 354 576L354 569L663 569L663 392L646 392C645.398 406.017 644.384 419.368 649 433L617 433C613.485 433 607.353 434.126 604.603 431.397C597.298 424.148 601.975 401.219 602 392L347 392C347 399.443 343.85 416.146 348.028 422.391C351.006 426.844 357.991 429.555 361.996 433.174C381.627 450.906 399 463.532 399 492C390.59 490.265 374.822 489.545 368.419 483.49C364.904 480.166 363.516 473.48 362 469L360 469C351.657 486.849 336.475 502.539 324.424 518C320.607 522.897 315.226 533.091 309.385 535.533C303.232 538.106 290.539 533.497 285 530.73C258.909 517.693 253.529 490.266 260 464C254.117 463.996 248.43 463.617 243 461.085C206.977 444.289 235.427 389.666 269 408.88C274.25 411.885 277.645 416.088 281 421L282 421C281.837 401.339 267.718 387.915 248 390L248 389C273.568 383.155 289.995 399.716 288 425C302.721 419.987 313.293 416.676 329 417C329 406.778 324.23 380.638 335.019 375.028C340.661 372.094 350.765 374 357 374L409 374L596 374L653 374C659.412 374 670.392 371.916 675.891 375.742C680.902 379.228 680 385.669 680 391L680 428L680 586L388 586L388 587C407.586 597.917 410.141 615.042 414.65 635C422.292 668.82 428.309 702.988 435.001 737C437.949 751.986 440.609 767.023 443.6 782C444.663 787.322 444.506 796.19 447.938 800.566C451.124 804.628 461.254 804.58 466 806.796C479.164 812.942 490.427 825.595 493.482 840C495.526 849.633 491.366 856.875 489.93 866C488.587 874.534 489.686 884.285 489.09 893C487.264 919.657 487.376 946.352 484.83 973C482.721 995.077 479.002 1017.82 479 1040C483.73 1041.29 488.163 1043.81 493 1044.67C496.028 1045.21 499.159 1044.91 501.995 1046.32C520.54 1055.52 490.138 1076.68 481.001 1079.57C477.059 1080.81 474.315 1081.48 475 1086C470.893 1087.26 468.463 1087.91 466 1084C456.943 1086.34 440.607 1090.8 438 1078C426.761 1080.58 399.943 1093.88 390.514 1082.77C383.477 1074.48 393.131 1053.82 396 1045L391 1045L391 904L334 907L332 1130L1280 1130L1280 753L1279 753C1278.99 775.116 1273.13 799.761 1262.13 819C1258.18 825.892 1246.19 832.359 1244.32 839.104C1240.73 852.054 1244.38 869.75 1244.96 883C1246.22 911.863 1246 941.128 1246 970L1255 969L1255 1055L1150 1055L1150 969L1162 970C1162 939.292 1162.85 908.72 1163 878C1163.06 866.484 1167.11 851.448 1163.68 840.228C1162.53 836.453 1156.03 835.867 1153 833.891C1147.34 830.198 1143.17 824.744 1139.76 819C1123.79 792.17 1117.31 749.629 1123 719L1142 733L1125.99 706L1132 680L1163 613C1166.48 618.253 1175 628.481 1174.51 635C1174.25 638.401 1171.34 641.897 1170 645L1179 640L1191.57 673.576L1180 694L1181 694L1196 682L1200 700L1201 700C1212.51 669.926 1220.94 640.293 1239 613L1249.85 635L1245 645L1254 640C1256.79 649.694 1268.21 663.315 1266.78 673.576C1265.81 680.546 1258.01 687.638 1255 694L1271 682L1279 724L1280 724L1280 0L0 0z"/>
<path style="fill:#817a85; stroke:none;" d="M334 374L335 375L334 374z"/>
<path style="fill:#71709a; stroke:none;" d="M335 374L336 375L335 374z"/>
<path style="fill:#41405b; stroke:none;" d="M330 417C313.736 417 301.833 419.291 287 426C293.074 400.768 274.499 386.145 251 388L251 389C269.86 389.391 281.988 403.842 282 422L281 422C264.314 384.066 206.749 418.993 231.557 451.996C234.283 455.622 237.947 458.596 242 460.622C247.703 463.473 253.811 463 260 463C257.725 491.82 256.816 522.771 291 532.964C295.87 534.416 303.928 536.667 308.961 535.227C314.878 533.533 319.968 523.63 323.576 519C335.335 503.906 354.123 486.444 360 468L362 468L368.649 483.436L398 492C405.758 465.746 376.511 445.697 360 431.184C356.486 428.096 350.414 425.877 348.028 421.79C344.065 415.005 347 399.772 347 392L602 392C602.868 371.829 632.979 379 648 379L646 392L664 392L664 523L664 556L662.397 568.397L642 570L585 570L355 570L357 579L349 578L349 579C354.41 578.713 374.89 576.422 376 584C380.652 582.449 386.962 588.26 384 589L384 590L388 587L384 585L680 585L680 428L680 391C680 385.669 680.902 379.228 675.891 375.742C670.392 371.916 659.412 374 653 374L595 374L411 374L358 374C351.227 374 341.389 372.217 335.094 375.009C325.297 379.355 330 407.854 330 417z"/>
<path style="fill:#817a85; stroke:none;" d="M674 374L675 375L674 374z"/>
<path style="fill:#71709a; stroke:none;" d="M333 375L334 376L333 375z"/>
<path style="fill:#817a85; stroke:none;" d="M676 375L677 376L676 375z"/>
<path style="fill:#71709a; stroke:none;" d="M677 376L678 377L677 376M331 377L332 378L331 377z"/>
<path style="fill:#817a85; stroke:none;" d="M678 377L679 378L678 377M330 378L331 379L330 378z"/>
<path style="fill:#71709a; stroke:none;" d="M603 382C615.61 376.657 634.414 380 648 380L615 379L603 382z"/>
<path style="fill:#817a85; stroke:none;" d="M679 379L680 380L679 379z"/>
<path style="fill:#48ac54; stroke:none;" d="M603 432L649 433C644.148 414.245 646.466 398.779 648 380L617 380L604.603 381.603L601.911 396L603 432z"/>
<path style="fill:#817a85; stroke:none;" d="M329 381L329 417L330 417C330 406.613 333.011 390.56 329 381z"/>
<path style="fill:#71709a; stroke:none;" d="M647 384L648 385L647 384M602 386L602 389L603 389L602 386z"/>
<path style="fill:#817a85; stroke:none;" d="M253.667 387.333L254.333 387.667L253.667 387.333z"/>
<path style="fill:#71709a; stroke:none;" d="M255 387L256 388L255 387M262.667 387.333L263.333 387.667L262.667 387.333z"/>
<path style="fill:#817a85; stroke:none;" d="M264 387L265 388L264 387M248 389L248 390L252 390L248 389M268 388L269 389L268 388z"/>
<path style="fill:#71709a; stroke:none;" d="M646.333 388.667L646.667 389.333L646.333 388.667z"/>
<path style="fill:#817a85; stroke:none;" d="M254 389L254 390L257 390L254 389z"/>
<path style="fill:#71709a; stroke:none;" d="M257 389L258 390L257 389M270 389L271 390L270 389z"/>
<path style="fill:#817a85; stroke:none;" d="M271 389L272 390L271 389z"/>
<path style="fill:#71709a; stroke:none;" d="M261 390L262 391L261 390z"/>
<path style="fill:#817a85; stroke:none;" d="M273 390L274 391L273 390M263 391L264 392L263 391z"/>
<path style="fill:#71709a; stroke:none;" d="M274 391L275 392L274 391M266 392L267 393L266 392z"/>
<path style="fill:#817a85; stroke:none;" d="M276 392L277 393L276 392z"/>
<path style="fill:#71709a; stroke:none;" d="M663 392L663 568L664 568L664 444L664 409L663 392M277 393L278 394L277 393z"/>
<path style="fill:#817a85; stroke:none;" d="M269 394L270 395L269 394z"/>
<path style="fill:#71709a; stroke:none;" d="M282 398L283 399L282 398z"/>
<path style="fill:#817a85; stroke:none;" d="M283 399L284 400L283 399M276 401L277 402L276 401z"/>
<path style="fill:#71709a; stroke:none;" d="M284 401L285 402L284 401M277 402L278 403L277 402M285 403L286 404L285 403z"/>
<path style="fill:#817a85; stroke:none;" d="M278 404L279 405L278 404M249.667 405.333L250.333 405.667L249.667 405.333z"/>
<path style="fill:#71709a; stroke:none;" d="M251 405L252 406L251 405M258 405L259 406L258 405z"/>
<path style="fill:#817a85; stroke:none;" d="M259.667 405.333L260.333 405.667L259.667 405.333z"/>
<path style="fill:#71709a; stroke:none;" d="M286 405L287 406L286 405z"/>
<path style="fill:#817a85; stroke:none;" d="M245 406L246 407L245 406z"/>
<path style="fill:#71709a; stroke:none;" d="M246 406L247 407L246 406M263 406L264 407L263 406z"/>
<path style="fill:#817a85; stroke:none;" d="M264 406L265 407L264 406M279 406L280 407L279 406M243 407L244 408L243 407M266 407L267 408L266 407M287 407L288 408L287 407M241 408L242 409L241 408M268 408L269 409L268 408z"/>
<path style="fill:#71709a; stroke:none;" d="M280 408L281 409L280 408M287 408L288 409L287 408z"/>
<path style="fill:#817a85; stroke:none;" d="M239 409L240 410L239 409M270 409L271 410L270 409M280 409L281 410L280 409M236 411L237 412L236 411M273 411L274 412L273 411M288 411L288 414L289 414L288 411M235 412L236 413L235 412M274 412L275 413L274 412M281.333 412.667L281.667 413.333L281.333 412.667M234 413L235 414L234 413M275 413L276 414L275 413M233 414L234 415L233 414M276 414L277 415L276 414z"/>
<path style="fill:#71709a; stroke:none;" d="M288.333 414.667L288.667 415.333L288.333 414.667z"/>
<path style="fill:#817a85; stroke:none;" d="M232 415L233 416L232 415M277 415L278 416L277 415M231 416L232 417L231 416M317 416L317 417L323 417L317 416z"/>
<path style="fill:#71709a; stroke:none;" d="M288 417L289 418L288 417z"/>
<path style="fill:#817a85; stroke:none;" d="M309.667 417.333L310.333 417.667L309.667 417.333z"/>
<path style="fill:#71709a; stroke:none;" d="M311 417L312 418L311 417M230 418L231 419L230 418z"/>
<path style="fill:#817a85; stroke:none;" d="M279 418L280 419L279 418M288 418L288 421L289 421L288 418M304.667 418.333L305.333 418.667L304.667 418.333M229 419L230 420L229 419M301 419L302 420L301 419z"/>
<path style="fill:#71709a; stroke:none;" d="M280 420L281 421L280 420z"/>
<path style="fill:#817a85; stroke:none;" d="M298 420L299 421L298 420M228 421L229 422L228 421M281 421L282 422L281 421z"/>
<path style="fill:#71709a; stroke:none;" d="M296 421L297 422L296 421M294 422L295 423L294 422z"/>
<path style="fill:#817a85; stroke:none;" d="M227 423L228 424L227 423M348 423L349 424L348 423z"/>
<path style="fill:#71709a; stroke:none;" d="M227 424L228 425L227 424z"/>
<path style="fill:#817a85; stroke:none;" d="M287 424L287 426L289 426L287 424M289 424L290 425L289 424z"/>
<path style="fill:#71709a; stroke:none;" d="M290 424L291 425L290 424z"/>
<path style="fill:#817a85; stroke:none;" d="M350 424L351 425L350 424z"/>
<path style="fill:#71709a; stroke:none;" d="M353 426L354 427L353 426z"/>
<path style="fill:#817a85; stroke:none;" d="M226 427L227 428L226 427M356 428L357 429L356 428M360 431L361 432L360 431M225 432L225 437L226 437L225 432M361 432L362 433L361 432M604 432L604 433L607 433L604 432M646.667 432.333L647.333 432.667L646.667 432.333M362 433L363 434L362 433z"/>
<path style="fill:#71709a; stroke:none;" d="M363 434L364 435L363 434M364 435L365 436L364 435z"/>
<path style="fill:#817a85; stroke:none;" d="M365 436L366 437L365 436M366 437L367 438L366 437M367 438L368 439L367 438z"/>
<path style="fill:#71709a; stroke:none;" d="M226 440L227 441L226 440z"/>
<path style="fill:#817a85; stroke:none;" d="M411 440L411 441L421 441L411 440M226 441L227 442L226 441z"/>
<path style="fill:#71709a; stroke:none;" d="M369 441L370 442L369 441z"/>
<path style="fill:#41405b; stroke:none;" d="M411 441C411.01 453.387 420.99 453.387 421 441L411 441z"/>
<path style="fill:#817a85; stroke:none;" d="M370 442L371 443L370 442z"/>
<path style="fill:#71709a; stroke:none;" d="M450 442L450 443L534 443L508 442L450 442z"/>
<path style="fill:#817a85; stroke:none;" d="M534 442L535 443L534 442z"/>
<path style="fill:#71709a; stroke:none;" d="M371 443L372 444L371 443z"/>
<path style="fill:#817a85; stroke:none;" d="M449 443L450 444L449 443z"/>
<path style="fill:#41405b; stroke:none;" d="M450 443L450 447L506 447L535 446L535 443L450 443z"/>
<path style="fill:#817a85; stroke:none;" d="M227 444L228 445L227 444M373 444L374 445L373 444z"/>
<path style="fill:#71709a; stroke:none;" d="M534 444L535 445L534 444M374 445L375 446L374 445z"/>
<path style="fill:#817a85; stroke:none;" d="M449.333 445.667L449.667 446.333L449.333 445.667z"/>
<path style="fill:#71709a; stroke:none;" d="M228 446L229 447L228 446z"/>
<path style="fill:#817a85; stroke:none;" d="M376 446L377 447L376 446z"/>
<path style="fill:#71709a; stroke:none;" d="M534 446L535 447L534 446z"/>
<path style="fill:#817a85; stroke:none;" d="M228 447L229 448L228 447z"/>
<path style="fill:#71709a; stroke:none;" d="M377 447L378 448L377 447z"/>
<path style="fill:#817a85; stroke:none;" d="M379 448L380 449L379 448z"/>
<path style="fill:#71709a; stroke:none;" d="M380 449L381 450L380 449z"/>
<path style="fill:#817a85; stroke:none;" d="M230 450L231 451L230 450z"/>
<path style="fill:#71709a; stroke:none;" d="M411 450L412 451L411 450M420 450L421 451L420 450z"/>
<path style="fill:#817a85; stroke:none;" d="M384 452L385 453L384 452M232 453L233 454L232 453M385 453L386 454L385 453M233 454L234 455L233 454M386 454L387 455L386 454M234 455L235 456L234 455M387 455L388 456L387 455M235 456L236 457L235 456z"/>
<path style="fill:#48ac54; stroke:none;" d="M410 457C410.002 471.06 421.998 471.06 422 457L410 457z"/>
<path style="fill:#71709a; stroke:none;" d="M238 458L239 459L238 458M389 458L390 459L389 458z"/>
<path style="fill:#817a85; stroke:none;" d="M239 459L240 460L239 459M390 459L391 460L390 459M241 460L242 461L241 460z"/>
<path style="fill:#48ac54; stroke:none;" d="M449 460C450.827 468.374 467.165 465 474 465L553 465C559.921 465 579.565 468.597 581 460L449 460z"/>
<path style="fill:#817a85; stroke:none;" d="M243 461L244 462L243 461z"/>
<path style="fill:#71709a; stroke:none;" d="M391 461L392 462L391 461z"/>
<path style="fill:#817a85; stroke:none;" d="M246 462L247 463L246 462M392 462L393 463L392 462M250.667 463.333L251.333 463.667L250.667 463.333z"/>
<path style="fill:#71709a; stroke:none;" d="M252 463L252 464L257 464L252 463z"/>
<path style="fill:#817a85; stroke:none;" d="M257 463L257 464L260 464L257 463M393 464L394 465L393 464M580 464L581 465L580 464M259.333 465.667L259.667 466.333L259.333 465.667M394 466L395 467L394 466z"/>
<path style="fill:#71709a; stroke:none;" d="M259 467L260 468L259 467z"/>
<path style="fill:#817a85; stroke:none;" d="M410 467L411 468L410 467M421 467L422 468L421 467M360.667 468.333L361.333 468.667L360.667 468.333M395 468L396 469L395 468M359 470L360 471L359 470M362 470L363 471L362 470M258 471L258 477L259 477L258 471M396 471L397 472L396 471M358 472L359 473L358 472z"/>
<path style="fill:#71709a; stroke:none;" d="M363 472L364 473L363 472z"/>
<path style="fill:#817a85; stroke:none;" d="M357 473L358 474L357 473M363 473L364 474L363 473M397 474L398 475L397 474z"/>
<path style="fill:#48ac54; stroke:none;" d="M410 474C410.002 488.06 421.998 488.06 422 474L410 474z"/>
<path style="fill:#817a85; stroke:none;" d="M356 475L357 476L356 475M364 475L365 476L364 475z"/>
<path style="fill:#71709a; stroke:none;" d="M397 475L398 476L397 475M355 476L356 477L355 476z"/>
<path style="fill:#48ac54; stroke:none;" d="M449 476L449 482L557 482L557 476L449 476z"/>
<path style="fill:#71709a; stroke:none;" d="M258.333 477.667L258.667 478.333L258.333 477.667z"/>
<path style="fill:#817a85; stroke:none;" d="M355 477L356 478L355 477z"/>
<path style="fill:#71709a; stroke:none;" d="M365 477L366 478L365 477z"/>
<path style="fill:#817a85; stroke:none;" d="M354 478L355 479L354 478M365 478L366 479L365 478M398 478L398 481L399 481L398 478M353 480L354 481L353 480M366.333 480.667L366.667 481.333L366.333 480.667M352 481L353 482L352 481z"/>
<path style="fill:#71709a; stroke:none;" d="M398 481L399 482L398 481M351 482L352 483L351 482M367 482L368 483L367 482z"/>
<path style="fill:#817a85; stroke:none;" d="M257 483L257 493L258 493L257 483M367 483L368 484L367 483M350 484L351 485L350 484M368 484L369 485L368 484M410 484L411 485L410 484M421 484L422 485L421 484M349 485L350 486L349 485M371.667 485.333L372.333 485.667L371.667 485.333z"/>
<path style="fill:#71709a; stroke:none;" d="M348 486L349 487L348 486z"/>
<path style="fill:#817a85; stroke:none;" d="M374 486L374 487L377 487L374 486M379.667 487.333L380.333 487.667L379.667 487.333M347 488L348 489L347 488M382.667 488.333L383.333 488.667L382.667 488.333z"/>
<path style="fill:#71709a; stroke:none;" d="M384 488L385 489L384 488z"/>
<path style="fill:#817a85; stroke:none;" d="M346 489L347 490L346 489M387.667 489.333L388.333 489.667L387.667 489.333M345 490L346 491L345 490M392 490L393 491L392 490M396 491L397 492L396 491z"/>
<path style="fill:#71709a; stroke:none;" d="M398 491L399 492L398 491z"/>
<path style="fill:#41405b; stroke:none;" d="M411 491L411 501L421 501L421 491L411 491z"/>
<path style="fill:#817a85; stroke:none;" d="M344 492L345 493L344 492M343 493L344 494L343 493M449 494L449 495C468.301 490.405 492.164 494 512 494L494 493L449 494M342 494L343 495L342 494z"/>
<path style="fill:#41405b; stroke:none;" d="M450 494L450 498L512 498L512 494L450 494z"/>
<path style="fill:#71709a; stroke:none;" d="M341 495L342 496L341 495z"/>
<path style="fill:#817a85; stroke:none;" d="M258.333 497.667L258.667 498.333L258.333 497.667M340 497L341 498L340 497M339 498L340 499L339 498M450 498L450 499L512 499L492 498L450 498M338 499L339 500L338 499z"/>
<path style="fill:#71709a; stroke:none;" d="M337 500L338 501L337 500z"/>
<path style="fill:#817a85; stroke:none;" d="M259 501L260 502L259 501M337 501L338 502L337 501M411.667 501.333L412.333 501.667L411.667 501.333M414 501L415 502L414 501M418 501L418 502L421 502L418 501M336 502L337 503L336 502M335 503L336 504L335 503z"/>
<path style="fill:#71709a; stroke:none;" d="M260 504L261 505L260 504M334 504L335 505L334 504z"/>
<path style="fill:#817a85; stroke:none;" d="M333 506L334 507L333 506M261 507L262 508L261 507M332 507L333 508L332 507M331 508L332 509L331 508z"/>
<path style="fill:#41405b; stroke:none;" d="M411 508L411 518L421 518L421 508L411 508z"/>
<path style="fill:#817a85; stroke:none;" d="M262 509L263 510L262 509M330 510L331 511L330 510M450 510L450 511L544 511L515 510L450 510M263 511L264 512L263 511M329 511L330 512L329 511z"/>
<path style="fill:#41405b; stroke:none;" d="M450 511L450 515L544 515L544 511L450 511z"/>
<path style="fill:#71709a; stroke:none;" d="M264 512L265 513L264 512z"/>
<path style="fill:#817a85; stroke:none;" d="M328 512L329 513L328 512M449.333 512.667L449.667 513.333L449.333 512.667M327.333 513.667L327.667 514.333L327.333 513.667M265 514L266 515L265 514M843 514L842 516L843 514z"/>
<path style="fill:#71709a; stroke:none;" d="M844 514L845 515L844 514z"/>
<path style="fill:#41405b; stroke:none;" d="M845.129 515.176C841.127 515.719 841.902 522.365 845.999 521.824C850.52 521.227 849.558 514.575 845.129 515.176z"/>
<path style="fill:#71709a; stroke:none;" d="M846 514L847 515L846 514z"/>
<path style="fill:#817a85; stroke:none;" d="M847 514L848 515L847 514z"/>
<path style="fill:#71709a; stroke:none;" d="M266 515L267 516L266 515z"/>
<path style="fill:#817a85; stroke:none;" d="M326 515L327 516L326 515z"/>
<path style="fill:#71709a; stroke:none;" d="M848 515L849 516L848 515z"/>
<path style="fill:#817a85; stroke:none;" d="M325 516L326 517L325 516M849 516L850 517L849 516M324 517L325 518L324 517M841 517L842 518L841 517M268 518L269 519L268 518z"/>
<path style="fill:#71709a; stroke:none;" d="M841 518L842 519L841 518z"/>
<path style="fill:#817a85; stroke:none;" d="M269 519L270 520L269 519M323 519L324 520L323 519M841 519L842 520L841 519z"/>
<path style="fill:#71709a; stroke:none;" d="M270 520L271 521L270 520z"/>
<path style="fill:#817a85; stroke:none;" d="M322 520L323 521L322 520M849 520L850 521L849 520z"/>
<path style="fill:#71709a; stroke:none;" d="M271 521L272 522L271 521z"/>
<path style="fill:#817a85; stroke:none;" d="M321 521L322 522L321 521M842 521L843 522L842 521z"/>
<path style="fill:#71709a; stroke:none;" d="M848 521L849 522L848 521z"/>
<path style="fill:#817a85; stroke:none;" d="M272 522L273 523L272 522z"/>
<path style="fill:#71709a; stroke:none;" d="M320 522L321 523L320 522z"/>
<path style="fill:#817a85; stroke:none;" d="M843.667 522.333L844.333 522.667L843.667 522.333z"/>
<path style="fill:#71709a; stroke:none;" d="M846 522L847 523L846 522z"/>
<path style="fill:#817a85; stroke:none;" d="M847 522L848 523L847 522M273 523L274 524L273 523M320 523L321 524L320 523M274 524L275 525L274 524M319 524L320 525L319 524M318 525L319 526L318 525M277 526L278 527L277 526M317 526L318 527L317 526z"/>
<path style="fill:#71709a; stroke:none;" d="M280 528L281 529L280 528M282 529L283 530L282 529z"/>
<path style="fill:#817a85; stroke:none;" d="M315 529L316 530L315 529M314 530L315 531L314 530M286 531L287 532L286 531z"/>
<path style="fill:#71709a; stroke:none;" d="M313 531L314 532L313 531z"/>
<path style="fill:#817a85; stroke:none;" d="M288 532L289 533L288 532z"/>
<path style="fill:#71709a; stroke:none;" d="M289 532L290 533L289 532z"/>
<path style="fill:#817a85; stroke:none;" d="M291 533L292 534L291 533z"/>
<path style="fill:#71709a; stroke:none;" d="M292 533L293 534L292 533z"/>
<path style="fill:#817a85; stroke:none;" d="M312 533L313 534L312 533M295.667 534.333L296.333 534.667L295.667 534.333z"/>
<path style="fill:#71709a; stroke:none;" d="M297 534L298 535L297 534z"/>
<path style="fill:#817a85; stroke:none;" d="M311 534L312 535L311 534M304.667 535.333L305.333 535.667L304.667 535.333z"/>
<path style="fill:#71709a; stroke:none;" d="M306 535L307 536L306 535z"/>
<path style="fill:#817a85; stroke:none;" d="M310 535L311 536L310 535M309 536L310 537L309 536M98 548L99 549L98 548z"/>
<path style="fill:#48ac54; stroke:none;" d="M97 549C91.5123 561.801 81.5949 574.425 89 588L84 587C84 594.426 82.3958 610.657 88.7029 616.062C92.3517 619.188 99.5753 618 104 618C118.919 618 129.841 619.972 139.782 607.08C143.431 602.349 145.991 598.701 143 593C149.82 591.904 153.382 585.719 152 579L155 571C142.572 572.092 123.777 578.35 122 592L121 592L120 587L113 592L110 573L106 574C109.032 568.35 107.922 562.177 102 559L100 549L97 549z"/>
<path style="fill:#817a85; stroke:none;" d="M102 555L103 556L102 555M812 556L812 557L822 557L822 567C825.849 557.826 819.689 556.001 812 556z"/>
<path style="fill:#71709a; stroke:none;" d="M812 557L812 566L813 566L812 557z"/>
<path style="fill:#41405b; stroke:none;" d="M813 557L813 567L822 567L822 557L813 557z"/>
<path style="fill:#71709a; stroke:none;" d="M102.667 558.333L103.333 558.667L102.667 558.333z"/>
<path style="fill:#817a85; stroke:none;" d="M104 559L105 560L104 559M836 559L837 560L836 559z"/>
<path style="fill:#71709a; stroke:none;" d="M836 563L837 563L837 560L879 560C870.168 556.294 855.582 558.996 846 559C841.633 559.002 837.56 558.299 836 563z"/>
<path style="fill:#41405b; stroke:none;" d="M837 560L837 564L879 564L879 560L837 560z"/>
<path style="fill:#817a85; stroke:none;" d="M836 563L837 564L836 563M812 566L813 567L812 566M663 568L664 569L663 568M108 569L109 570L108 569M354 569L352 576L352 577C355.716 576.204 355 573.363 355 570L663 570L635 569L572 569L354 569M155 570L156 571L155 570M293 570L294 571L293 570z"/>
<path style="fill:#71709a; stroke:none;" d="M294 570L290 572L289 575L287 574L273 588L270 594L272 593L272 594C268.923 596.795 267.558 598.793 268 603L266 602L266 616L265 616L265 612L264 612C264.062 634.642 265.436 657.87 267.052 680.424C267.712 689.624 266.151 698.935 267.91 708C269.245 714.877 263.374 738.392 274 737C277.449 742.221 287.935 745.836 294 745C295.25 750.491 304.011 752.451 309 752C309.552 756.192 314.351 756.629 318 756C318.759 761.744 339.427 768.673 345 768C345.825 773.821 367.468 781.002 373 780C373.647 785.367 385.33 788.21 390 790L387 786C386.811 773.136 374.325 757.892 369.474 746C364.11 732.852 364.757 716.87 361.594 703C360.03 696.144 362.419 681.936 357 677L358 666L359 666L362 678L367 701L387 767L398 794C415.4 799.011 428.544 802 447 802L443 779L442 773L440 773L437 747L436 747L436 749L435 749L436 744L433 740L434 740L436 743L434 731L428 720L432 722L427 705L421 664L420 664L419 667L418 667C420.07 661.277 420.597 651.905 415 648L415 647L417 645L414 644C420.838 633.381 406.184 611.958 405 601L401 599C400.328 595.547 398.303 595.373 395 595L395 591L389 587L384 590L384 589L386 588C382.607 585.06 380.673 583.034 376 584C375.034 576.194 354.691 578.359 349 579L349 578L352 576C336.852 576.57 318.578 568.691 304 573L294 570z"/>
<path style="fill:#817a85; stroke:none;" d="M295 570L295 571L301 571L295 570z"/>
<path style="fill:#71709a; stroke:none;" d="M155 571L156 572L155 571z"/>
<path style="fill:#817a85; stroke:none;" d="M291 571L292 572L291 571z"/>
<path style="fill:#41405b; stroke:none;" d="M292 571L293 572L292 571M295.667 571.333L296.333 571.667L295.667 571.333z"/>
<path style="fill:#817a85; stroke:none;" d="M304 571L304 572L311 572L304 571M109 572L110 573L109 572M155 572L156 573L155 572z"/>
<path style="fill:#41405b; stroke:none;" d="M291 572L292 573L291 572M293 572L289 575L289 576L292 574L293 574L295 576L293 572M304 572L305 573L304 572z"/>
<path style="fill:#817a85; stroke:none;" d="M315 572L315 573L320 573L315 572M145 573L146 574L145 573M288 573L289 574L288 573z"/>
<path style="fill:#41405b; stroke:none;" d="M289 573L290 574L289 573z"/>
<path style="fill:#71709a; stroke:none;" d="M293 573L294 574L293 573z"/>
<path style="fill:#41405b; stroke:none;" d="M296 573L297 574L296 573M298 573L298 574L301 574L298 573M307 574L307 575L312 574L307 574M320 573L321 574L320 573z"/>
<path style="fill:#817a85; stroke:none;" d="M323 573L323 574L330 574L323 573M142 574L143 575L142 574z"/>
<path style="fill:#41405b; stroke:none;" d="M288 574L289 575L288 574M304 574L305 575L304 574z"/>
<path style="fill:#817a85; stroke:none;" d="M333 574L333 575L338 575L333 574M285 575L284 577L285 575z"/>
<path style="fill:#41405b; stroke:none;" d="M287 575L287 579L288 579L287 575M297 575L298 576L297 575M301.667 575.333L302.333 575.667L301.667 575.333M310.667 575.333L311.333 575.667L310.667 575.333M320.667 575.333L321.333 575.667L320.667 575.333M336.667 575.333L337.333 575.667L336.667 575.333z"/>
<path style="fill:#817a85; stroke:none;" d="M341 575L341 576L348 576L341 575M137 576L138 577L137 576z"/>
<path style="fill:#41405b; stroke:none;" d="M285 576L286 577L285 576M347 576L348 577L347 576z"/>
<path style="fill:#71709a; stroke:none;" d="M353 577L353 578L357 579L357 578L353 577M358 577L359 578L358 577z"/>
<path style="fill:#817a85; stroke:none;" d="M812 577L813 578L812 577z"/>
<path style="fill:#71709a; stroke:none;" d="M812 587L813 587L813 578L817 578C811.328 576.141 812.003 583.185 812 587z"/>
<path style="fill:#41405b; stroke:none;" d="M813 578L813 587L822 587L821 577L813 578z"/>
<path style="fill:#71709a; stroke:none;" d="M818.667 577.333L819.333 577.667L818.667 577.333M821 577L822 578L821 577z"/>
<path style="fill:#817a85; stroke:none;" d="M822 577L822 587L812 587L812 588L823 588L822 577z"/>
<path style="fill:#41405b; stroke:none;" d="M282 578L283 579L282 578M284 578L283 579L283 580L284 581L285 581L286 580L286 579L284 578M344.667 578.333L345.333 578.667L344.667 578.333z"/>
<path style="fill:#71709a; stroke:none;" d="M284 579L285 580L284 579z"/>
<path style="fill:#41405b; stroke:none;" d="M287 580L284 584L287 580M348 580L348 581L353 581L353 580L348 580M359 580L358 582L359 580z"/>
<path style="fill:#817a85; stroke:none;" d="M836 580L837 581L836 580z"/>
<path style="fill:#41405b; stroke:none;" d="M837 580L837 584L879 584L879 580L837 580M282 581L279 582L278 583L277 585L277 586L282 581M368.667 581.333L369.333 581.667L368.667 581.333z"/>
<path style="fill:#71709a; stroke:none;" d="M836 581C837.655 585.987 842.459 585 847 585L878 585L878 584C867.617 584 843.754 588.402 836 581z"/>
<path style="fill:#41405b; stroke:none;" d="M345 582L346 583L345 582M354 582L355 583L354 582M356.333 582.667L356.667 583.333L356.333 582.667M371.667 582.333L372.333 582.667L371.667 582.333z"/>
<path style="fill:#817a85; stroke:none;" d="M124 583L125 584L124 583z"/>
<path style="fill:#71709a; stroke:none;" d="M279 583L280 584L279 583z"/>
<path style="fill:#41405b; stroke:none;" d="M287 583L288 584L287 583M347 583L348 584L347 583M351.667 583.333L352.333 583.667L351.667 583.333M358.667 583.333L359.333 583.667L358.667 583.333M367 583L367 584L370 584L367 583z"/>
<path style="fill:#817a85; stroke:none;" d="M836 584L837 585L836 584M878 584L879 585L878 584M84.3333 585.667L84.6667 586.333L84.3333 585.667M275 585L274 587L275 585z"/>
<path style="fill:#71709a; stroke:none;" d="M384 585L387 588L384 585z"/>
<path style="fill:#817a85; stroke:none;" d="M386 585L386 586L483 586L680 586L653 585L594 585L386 585z"/>
<path style="fill:#71709a; stroke:none;" d="M85 586L86 587L85 586z"/>
<path style="fill:#41405b; stroke:none;" d="M275 586L276 587L275 586z"/>
<path style="fill:#817a85; stroke:none;" d="M150 587L151 588L150 587z"/>
<path style="fill:#41405b; stroke:none;" d="M274.333 587.667L274.667 588.333L274.333 587.667M276 587L274 592L275 592L276 592L276 587M279 587L278 592L279 592L279 587z"/>
<path style="fill:#817a85; stroke:none;" d="M389 587L390 588L389 587z"/>
<path style="fill:#fcfbfb; stroke:none;" d="M89 588L90 589L89 588z"/>
<path style="fill:#41405b; stroke:none;" d="M389 588L390 589L389 588z"/>
<path style="fill:#817a85; stroke:none;" d="M272 589L271 591L272 589z"/>
<path style="fill:#41405b; stroke:none;" d="M273 589L274 590L273 589z"/>
<path style="fill:#817a85; stroke:none;" d="M392 589L394 591L392 589z"/>
<path style="fill:#41405b; stroke:none;" d="M272 590L273 591L272 590M387 590L387 591L392 595L393 595L394 593L387 590M392 590L393 591L392 590M385 591L386 592L385 591M393 591L394 592L393 591z"/>
<path style="fill:#817a85; stroke:none;" d="M395 591L399 595L395 591M146.667 592.333L147.333 592.667L146.667 592.333M270 592L271 593L270 592z"/>
<path style="fill:#41405b; stroke:none;" d="M394.667 592.333L395.333 592.667L394.667 592.333z"/>
<path style="fill:#817a85; stroke:none;" d="M143 593L144 594L143 593z"/>
<path style="fill:#41405b; stroke:none;" d="M271 593L269 596L271 593M395 594L398 596L397 593L395 594z"/>
<path style="fill:#817a85; stroke:none;" d="M269 594L270 595L269 594z"/>
<path style="fill:#71709a; stroke:none;" d="M145.333 595.667L145.667 596.333L145.333 595.667z"/>
<path style="fill:#817a85; stroke:none;" d="M146 595L147 596L146 595M268 596L269 597L268 596z"/>
<path style="fill:#41405b; stroke:none;" d="M270 596L271 599L272 599L270 596M392 597L397 596L392 597M399 596L398 598L399 596z"/>
<path style="fill:#817a85; stroke:none;" d="M145 597L146 598L145 597z"/>
<path style="fill:#41405b; stroke:none;" d="M268 597L269 598L268 597z"/>
<path style="fill:#71709a; stroke:none;" d="M393 597L394 598L393 597z"/>
<path style="fill:#817a85; stroke:none;" d="M503 597L503 598L507 598L503 597M267 598L268 599L267 598z"/>
<path style="fill:#41405b; stroke:none;" d="M269 598L269 601L270 601L269 598M401 598L403 600L401 598z"/>
<path style="fill:#817a85; stroke:none;" d="M402 598L403 599L402 598z"/>
<path style="fill:#71709a; stroke:none;" d="M501 598L502 599L501 598z"/>
<path style="fill:#41405b; stroke:none;" d="M502.044 598.746C492.555 602.472 498.214 617.821 507.981 614.242C518.4 610.426 512.085 594.804 502.044 598.746z"/>
<path style="fill:#71709a; stroke:none;" d="M508 598L509 599L508 598z"/>
<path style="fill:#817a85; stroke:none;" d="M509 598L510 599L509 598z"/>
<path style="fill:#71709a; stroke:none;" d="M812 598L812 608L813 608L812 598z"/>
<path style="fill:#41405b; stroke:none;" d="M813 598L813 608L822 608L822 598L813 598z"/>
<path style="fill:#817a85; stroke:none;" d="M822 598L822 608L823 608L822 598z"/>
<path style="fill:#41405b; stroke:none;" d="M396 599L397 600L396 599M400 599L401 605L403 607L406 607L406 606L400 599z"/>
<path style="fill:#817a85; stroke:none;" d="M403 599L404 600L403 599M499 599L500 600L499 599M510 599L511 600L510 599M266.333 600.667L266.667 601.333L266.333 600.667M498 600L499 601L498 600z"/>
<path style="fill:#71709a; stroke:none;" d="M511 600L512 601L511 600z"/>
<path style="fill:#817a85; stroke:none;" d="M836 601L836 602L879 601C869.594 597.053 845.762 598.115 836 601z"/>
<path style="fill:#41405b; stroke:none;" d="M267.333 601.667L267.667 602.333L267.333 601.667z"/>
<path style="fill:#817a85; stroke:none;" d="M512 601L513 602L512 601z"/>
<path style="fill:#41405b; stroke:none;" d="M837 601L837 605L879 605L879 601L837 601M404 602L405 605L406 605L404 602z"/>
<path style="fill:#817a85; stroke:none;" d="M405 602L406 603L405 602z"/>
<path style="fill:#71709a; stroke:none;" d="M497 602L498 603L497 602M836.333 602.667L836.667 603.333L836.333 602.667z"/>
<path style="fill:#41405b; stroke:none;" d="M266 603L267 604L266 603z"/>
<path style="fill:#817a85; stroke:none;" d="M513 603L514 604L513 603M265 604L266 605L265 604M406 604L407 605L406 604M496 604L496 609L497 609L496 604M836 604L837 605L836 604M140 605L141 606L140 605z"/>
<path style="fill:#41405b; stroke:none;" d="M268.333 605.667L268.667 606.333L268.333 605.667M271 605L270 610L271 610L271 605z"/>
<path style="fill:#817a85; stroke:none;" d="M837 605L837 606L879 606C868.012 601.389 848.957 605 837 605M407 606L408 607L407 606z"/>
<path style="fill:#41405b; stroke:none;" d="M401 607L402 608L401 607z"/>
<path style="fill:#817a85; stroke:none;" d="M264 608L264 612L265 612L264 608M408.333 608.667L408.667 609.333L408.333 608.667z"/>
<path style="fill:#71709a; stroke:none;" d="M513 608L514 609L513 608z"/>
<path style="fill:#817a85; stroke:none;" d="M513 609L514 610L513 609M136 610L137 611L136 610z"/>
<path style="fill:#41405b; stroke:none;" d="M265 610L265 616L266 616L265 610M408.333 610.667L408.667 611.333L408.333 610.667z"/>
<path style="fill:#817a85; stroke:none;" d="M497 610L498 611L497 610z"/>
<path style="fill:#41405b; stroke:none;" d="M267 611L267 614L268 614L267 611z"/>
<path style="fill:#817a85; stroke:none;" d="M409.333 611.667L409.667 612.333L409.333 611.667M512 611L513 612L512 611M511 612L512 613L511 612z"/>
<path style="fill:#71709a; stroke:none;" d="M500 613L501 614L500 613z"/>
<path style="fill:#817a85; stroke:none;" d="M510 613L511 614L510 613M1163 613L1162 615L1163 613M1238 613L1240 615L1238 613z"/>
<path style="fill:#41405b; stroke:none;" d="M269.333 614.667L269.667 615.333L269.333 614.667M408.333 614.667L408.667 615.333L408.333 614.667z"/>
<path style="fill:#817a85; stroke:none;" d="M501 614L502 615L501 614z"/>
<path style="fill:#71709a; stroke:none;" d="M502 614L503 615L502 614z"/>
<path style="fill:#817a85; stroke:none;" d="M508 614L509 615L508 614z"/>
<path style="fill:#71709a; stroke:none;" d="M1163 614L1164 615L1163 614M1238 614L1239 615L1238 614z"/>
<path style="fill:#817a85; stroke:none;" d="M410.333 615.667L410.667 616.333L410.333 615.667z"/>
<path style="fill:#48ac54; stroke:none;" d="M1144 652C1139.19 655.741 1137.94 663.464 1135.96 669C1131.08 682.616 1117.22 707.818 1134 718L1142 733L1136 730C1134.53 727.263 1125.52 716.468 1122.6 722.323C1119.25 729.062 1121.46 745.535 1122.17 753C1124.44 776.825 1128.27 803.894 1142.35 823.985C1159.67 848.71 1183.14 832.743 1191.66 810C1195.21 800.527 1199.13 791.198 1200 781L1201 781C1206.58 798.255 1209.41 820.402 1224.95 832.235C1243.2 846.133 1269.19 824.492 1268 804C1274.55 798.779 1275.78 781.944 1277.08 774C1280.27 754.593 1281.12 734.538 1278.71 715C1277.41 704.445 1273.54 694.436 1272 684C1266.35 683.819 1259.78 688.591 1258 694L1255 694L1266.7 673.17L1258 648.83L1252.79 641.737L1245 645C1250.63 635.652 1250.47 633.257 1245.03 623.576C1243.47 620.806 1240.91 613.667 1236.61 616.801C1231.33 620.643 1227.17 632.171 1224.25 638C1214.3 657.857 1207.05 678.666 1201 700L1200 700L1196 683C1190.44 684.321 1183.13 689.582 1181 695L1180 695C1182.85 687.825 1190.33 681.576 1191.72 674C1193.49 664.421 1182.32 648.989 1179 640L1170 645C1174.66 637.415 1177.63 629.425 1168 624C1168.25 620.24 1165.22 612.772 1160.63 617.337C1154.26 623.672 1143.93 643.086 1144 652z"/>
<path style="fill:#817a85; stroke:none;" d="M1237 615L1238 616L1237 615M74 616L74 664L75 664C75 650.474 79.2093 628.414 74 616z"/>
<path style="fill:#41405b; stroke:none;" d="M75 616L75 664L142 664L142 616C121.032 619.893 95.9616 619.894 75 616z"/>
<path style="fill:#71709a; stroke:none;" d="M77 616L78 617L77 616z"/>
<path style="fill:#817a85; stroke:none;" d="M78 616L78 617L81 617L78 616M135 616L135 617L139 617L135 616z"/>
<path style="fill:#71709a; stroke:none;" d="M139 616L140 617L139 616z"/>
<path style="fill:#817a85; stroke:none;" d="M142 616L142 664L143 664C143 650.474 147.209 628.414 142 616z"/>
<path style="fill:#41405b; stroke:none;" d="M267 616L267 625L268 625L267 616z"/>
<path style="fill:#71709a; stroke:none;" d="M85 617L86 618L85 617z"/>
<path style="fill:#817a85; stroke:none;" d="M86.6667 617.333L87.3333 617.667L86.6667 617.333z"/>
<path style="fill:#71709a; stroke:none;" d="M88 617L88 618L92 618L88 617z"/>
<path style="fill:#41405b; stroke:none;" d="M408.333 618.667L408.667 619.333L408.333 618.667z"/>
<path style="fill:#817a85; stroke:none;" d="M411.333 619.667L411.667 620.333L411.333 619.667M264 620L264 630L265 630L264 620z"/>
<path style="fill:#41405b; stroke:none;" d="M269 620L270 626L271 626L269 620M408 624L411 621L408 624z"/>
<path style="fill:#817a85; stroke:none;" d="M1168.67 623.333L1169.33 623.667L1168.67 623.333M1244 623L1245 624L1244 623z"/>
<path style="fill:#41405b; stroke:none;" d="M411 624L412 625L411 624z"/>
<path style="fill:#817a85; stroke:none;" d="M412.333 624.667L412.667 625.333L412.333 624.667M1231 625L1232 626L1231 625z"/>
<path style="fill:#41405b; stroke:none;" d="M410 626L411 627L410 626z"/>
<path style="fill:#817a85; stroke:none;" d="M1155 626L1156 627L1155 626z"/>
<path style="fill:#41405b; stroke:none;" d="M412.333 627.667L412.667 628.333L412.333 627.667M409.333 628.667L409.667 629.333L409.333 628.667M266 629L267 635L268 635L266 629M411 629L412 630L411 629z"/>
<path style="fill:#817a85; stroke:none;" d="M413.333 629.667L413.667 630.333L413.333 629.667M1229 629L1230 630L1229 629z"/>
<path style="fill:#41405b; stroke:none;" d="M408.333 631.667L408.667 632.333L408.333 631.667M410 631L411 632L410 631M412 631L413 632L412 631M270 632L270 635L271 635L270 632M409 634L409 638L410 638L409 634z"/>
<path style="fill:#817a85; stroke:none;" d="M414 634L415 635L414 634z"/>
<path style="fill:#41405b; stroke:none;" d="M411 636L410 640L411 636M266 638L267 643L268 643L266 638z"/>
<path style="fill:#817a85; stroke:none;" d="M415.333 638.667L415.667 639.333L415.333 638.667z"/>
<path style="fill:#41405b; stroke:none;" d="M265.333 640.667L265.667 641.333L265.333 640.667z"/>
<path style="fill:#817a85; stroke:none;" d="M1251 640L1252 641L1251 640z"/>
<path style="fill:#71709a; stroke:none;" d="M1252 640L1253 641L1252 640z"/>
<path style="fill:#817a85; stroke:none;" d="M1253 640L1254 641L1253 640z"/>
<path style="fill:#71709a; stroke:none;" d="M1246 641L1247 642L1246 641z"/>
<path style="fill:#41405b; stroke:none;" d="M412.667 642.333L413.333 642.667L412.667 642.333M414.667 643.333L415.333 643.667L414.667 643.333z"/>
<path style="fill:#817a85; stroke:none;" d="M416.333 643.667L416.667 644.333L416.333 643.667M1246 644L1247 645L1246 644z"/>
<path style="fill:#41405b; stroke:none;" d="M270 645L270 648L271 648L270 645z"/>
<path style="fill:#817a85; stroke:none;" d="M1180 645L1181 646L1180 645M265 646L265 658L266 658L265 646z"/>
<path style="fill:#41405b; stroke:none;" d="M410 646L410 648L412 648L410 646M266 647L267 648L266 647M415.667 647.333L416.333 647.667L415.667 647.333M267 648L267 651L268 651L267 648z"/>
<path style="fill:#817a85; stroke:none;" d="M417.333 648.667L417.667 649.333L417.333 648.667M1219 649L1220 650L1219 649z"/>
<path style="fill:#41405b; stroke:none;" d="M416 650L416 653L417 653L416 650z"/>
<path style="fill:#817a85; stroke:none;" d="M1143 651L1144 652L1143 651M1258 651L1259 652L1258 651M418.333 652.667L418.667 653.333L418.333 652.667M1184 653L1184 656L1185 656L1184 653z"/>
<path style="fill:#41405b; stroke:none;" d="M268 654L268 660L269 660L268 654M417 655L417 663L418 663L417 655z"/>
<path style="fill:#817a85; stroke:none;" d="M1141 655L1142 656L1141 655M419.333 657.667L419.667 658.333L419.333 657.667M1262 660L1263 661L1262 660z"/>
<path style="fill:#41405b; stroke:none;" d="M269 661L268 667L269 667L269 661z"/>
<path style="fill:#817a85; stroke:none;" d="M420.333 662.667L420.667 663.333L420.333 662.667z"/>
<path style="fill:#41405b; stroke:none;" d="M419 663L418 667L419 667L419 663z"/>
<path style="fill:#817a85; stroke:none;" d="M1137 665L1138 666L1137 665z"/>
<path style="fill:#41405b; stroke:none;" d="M358 666L357 677L361.104 701L367.076 740L387 786L399 793L399 792L386.265 763L369.28 710L362 678L358 666M420 667L421 668L420 667z"/>
<path style="fill:#817a85; stroke:none;" d="M421.333 667.667L421.667 668.333L421.333 667.667z"/>
<path style="fill:#41405b; stroke:none;" d="M269 668L269 678L270 678L269 668M417 668L417 673L418 673L417 668M419.333 668.667L419.667 669.333L419.333 668.667M353 670L353 675L354 675L353 670z"/>
<path style="fill:#817a85; stroke:none;" d="M1135.33 670.667L1135.67 671.333L1135.33 670.667z"/>
<path style="fill:#41405b; stroke:none;" d="M421 671L422 672L421 671z"/>
<path style="fill:#817a85; stroke:none;" d="M1266 671L1267 672L1266 671z"/>
<path style="fill:#41405b; stroke:none;" d="M355.333 672.667L355.667 673.333L355.333 672.667M420 672L420 675L421 675L420 672z"/>
<path style="fill:#817a85; stroke:none;" d="M422.333 672.667L422.667 673.333L422.333 672.667M1209 673L1210 674L1209 673M1267 673L1268 674L1267 673z"/>
<path style="fill:#41405b; stroke:none;" d="M416 674L416 677L417 677L416 674z"/>
<path style="fill:#817a85; stroke:none;" d="M1190 676L1191 677L1190 676M266 677L266 692L267 692L266 677z"/>
<path style="fill:#41405b; stroke:none;" d="M354 677L355 682L356 682L354 677M418 677L419 678L418 677z"/>
<path style="fill:#817a85; stroke:none;" d="M423.333 677.667L423.667 678.333L423.333 677.667M1264 678L1265 679L1264 678z"/>
<path style="fill:#41405b; stroke:none;" d="M267 679L268 680L267 679M417 679L418 680L417 679M421 679L422 680L421 679z"/>
<path style="fill:#817a85; stroke:none;" d="M1207 679L1208 680L1207 679z"/>
<path style="fill:#41405b; stroke:none;" d="M363.333 680.667L363.667 681.333L363.333 680.667M366 680L366 683L367 683L366 680z"/>
<path style="fill:#817a85; stroke:none;" d="M1131 681L1132 682L1131 681M424.333 682.667L424.667 683.333L424.333 682.667M1194.67 682.333L1195.33 682.667L1194.67 682.333M1270 682L1269 684L1271 684L1270 682z"/>
<path style="fill:#41405b; stroke:none;" d="M365 684L364 688L365 688L365 684M367 685L367 688L368 688L367 685M267.333 686.667L267.667 687.333L267.333 686.667M424 687L425 688L424 687z"/>
<path style="fill:#817a85; stroke:none;" d="M425.333 687.667L425.667 688.333L425.333 687.667M1263 687L1264 688L1263 687M1182 688L1183 689L1182 688z"/>
<path style="fill:#41405b; stroke:none;" d="M269 689L270 690L269 689M271.333 689.667L271.667 690.333L271.333 689.667z"/>
<path style="fill:#817a85; stroke:none;" d="M1185 689L1184 691L1185 689M1261 689L1262 690L1261 689z"/>
<path style="fill:#41405b; stroke:none;" d="M424 690L425 691L424 690z"/>
<path style="fill:#71709a; stroke:none;" d="M1185 690L1186 691L1185 690z"/>
<path style="fill:#817a85; stroke:none;" d="M1256 690L1257 691L1256 690z"/>
<path style="fill:#41405b; stroke:none;" d="M267 691L267 694L268 694L267 691M269.333 692.667L269.667 693.333L269.333 692.667M425 692L426 693L425 692z"/>
<path style="fill:#817a85; stroke:none;" d="M426.333 692.667L426.667 693.333L426.333 692.667M1257.33 692.667L1257.67 693.333L1257.33 692.667z"/>
<path style="fill:#41405b; stroke:none;" d="M424 694L426 697L424 694z"/>
<path style="fill:#71709a; stroke:none;" d="M1180 694L1181 695L1180 694z"/>
<path style="fill:#41405b; stroke:none;" d="M269.333 695.667L269.667 696.333L269.333 695.667z"/>
<path style="fill:#817a85; stroke:none;" d="M1127 695L1128 696L1127 695z"/>
<path style="fill:#41405b; stroke:none;" d="M271.333 696.667L271.667 697.333L271.333 696.667z"/>
<path style="fill:#817a85; stroke:none;" d="M427 698L428 699L427 698z"/>
<path style="fill:#41405b; stroke:none;" d="M425 699L424 705L427 704L425 699M268 700L268 704L269 704L268 700M270 701L270 704L271 704L270 701z"/>
<path style="fill:#71709a; stroke:none;" d="M425 703L426 704L425 703z"/>
<path style="fill:#817a85; stroke:none;" d="M428.333 703.667L428.667 704.333L428.333 703.667z"/>
<path style="fill:#41405b; stroke:none;" d="M427 704L428 705L427 704M426.333 706.667L426.667 707.333L426.333 706.667z"/>
<path style="fill:#817a85; stroke:none;" d="M267 707L267 720L268 720L267 707z"/>
<path style="fill:#41405b; stroke:none;" d="M428 707L429 708L428 707M268 708L268 712L269 712L268 708M424 708L425 709L424 708z"/>
<path style="fill:#817a85; stroke:none;" d="M429.333 708.667L429.667 709.333L429.333 708.667z"/>
<path style="fill:#41405b; stroke:none;" d="M372 709L373 710L372 709M361.333 710.667L361.667 711.333L361.333 710.667M426 710L426 714L427 714L426 710z"/>
<path style="fill:#817a85; stroke:none;" d="M740 710L740 711L846 711L814 710L740 710M890 713L891 713C897.361 708.181 912.177 711 920 711L997 711C990.081 708.097 979.48 710 972 710L915 710C908.662 710 893.752 707.212 890 713z"/>
<path style="fill:#41405b; stroke:none;" d="M375 711L376 712L375 711M424 711L424 714L425 714L424 711M740 711L740 778L997 778L997 711L891 711L889 718L847 717C845.001 707.415 828.664 711 821 711L740 711z"/>
<path style="fill:#71709a; stroke:none;" d="M845 711L846 712L845 711z"/>
<path style="fill:#fcfbfb; stroke:none;" d="M1203 711C1203.41 720.461 1207 727.134 1216 731L1203 711z"/>
<path style="fill:#41405b; stroke:none;" d="M360 713L361 714L360 713z"/>
<path style="fill:#817a85; stroke:none;" d="M430.333 713.667L430.667 714.333L430.333 713.667M846 713L847 714L846 713z"/>
<path style="fill:#71709a; stroke:none;" d="M890 713L891 714L890 713z"/>
<path style="fill:#41405b; stroke:none;" d="M425 715L425 718L426 718L425 715M428.333 715.667L428.667 716.333L428.333 715.667z"/>
<path style="fill:#817a85; stroke:none;" d="M847 715L848 716L847 715M889.333 715.667L889.667 716.333L889.333 715.667M1206 715L1207 716L1206 715z"/>
<path style="fill:#71709a; stroke:none;" d="M847 716L848 717L847 716z"/>
<path style="fill:#817a85; stroke:none;" d="M1207 716L1208 717L1207 716z"/>
<path style="fill:#41405b; stroke:none;" d="M430 717L431 718L430 717z"/>
<path style="fill:#71709a; stroke:none;" d="M888 717L889 718L888 717z"/>
<path style="fill:#41405b; stroke:none;" d="M361 718L362 724L363 724L361 718M428 718L429 719L428 718z"/>
<path style="fill:#817a85; stroke:none;" d="M431.333 718.667L431.667 719.333L431.333 718.667M1133 718L1134 719L1133 718M1123.67 719.333L1124.33 719.667L1123.67 719.333z"/>
<path style="fill:#41405b; stroke:none;" d="M428 720L432 724L428 720M424.333 721.667L424.667 722.333L424.333 721.667z"/>
<path style="fill:#817a85; stroke:none;" d="M1128 722L1129 723L1128 722z"/>
<path style="fill:#41405b; stroke:none;" d="M270 723L271 724L270 723M375.333 723.667L375.667 724.333L375.333 723.667z"/>
<path style="fill:#817a85; stroke:none;" d="M432 723L432 726L433 726L432 723M1279 724L1280 725L1279 724z"/>
<path style="fill:#41405b; stroke:none;" d="M362 725L363 726L362 725M426.667 725.333L427.333 725.667L426.667 725.333M270 726L270 730L271 730L270 726z"/>
<path style="fill:#817a85; stroke:none;" d="M1133 726L1134 727L1133 726M1213 726L1214 727L1213 726M217.667 727.333L218.333 727.667L217.667 727.333z"/>
<path style="fill:#48ac54; stroke:none;" d="M219 727.443C205.069 729.102 192.933 739.585 191.184 754C189.689 766.322 194.572 779.182 197.526 791C204.139 817.456 206.781 853.381 224.769 874.83C241.576 894.872 267.316 899.659 292 902.76C329.258 907.441 366.872 907.741 404 901.675C426.122 898.061 458.52 893.261 477.014 880.161C497.883 865.377 499.079 835.052 481.576 817.26C460.958 796.302 436.351 807.82 412 799.286C374.111 786.008 336.37 767.025 300 749.961C276.589 738.976 245.67 724.267 219 727.443z"/>
<path style="fill:#817a85; stroke:none;" d="M224 727L224 728L231 728L224 727z"/>
<path style="fill:#41405b; stroke:none;" d="M432 727L433 728L432 727z"/>
<path style="fill:#817a85; stroke:none;" d="M235 728L235 729L238 729L235 728M433 728L433 731L434 731L433 728M1215 728L1216 729L1215 728M240 729L240 730L243 730L240 729z"/>
<path style="fill:#41405b; stroke:none;" d="M268.333 729.667L268.667 730.333L268.333 729.667M432 729L432 732L433 732L432 729z"/>
<path style="fill:#817a85; stroke:none;" d="M1136 729L1137 730L1136 729z"/>
<path style="fill:#41405b; stroke:none;" d="M271 731L271 735L272 735L271 731z"/>
<path style="fill:#817a85; stroke:none;" d="M1214 731L1215 732L1214 731z"/>
<path style="fill:#41405b; stroke:none;" d="M433.333 732.667L433.667 733.333L433.333 732.667z"/>
<path style="fill:#817a85; stroke:none;" d="M256.667 733.333L257.333 733.667L256.667 733.333M202 734L203 735L202 734M434.333 734.667L434.667 735.333L434.333 734.667M263 735L264 736L263 735z"/>
<path style="fill:#41405b; stroke:none;" d="M432 735L432 739L433 739L432 735M270 736L271 737L270 736M274 736L275 737L274 736M272.667 737.333L273.333 737.667L272.667 737.333M279 737L280 738L279 737M434.333 738.667L434.667 739.333L434.333 738.667z"/>
<path style="fill:#817a85; stroke:none;" d="M435.333 739.667L435.667 740.333L435.333 739.667z"/>
<path style="fill:#41405b; stroke:none;" d="M282 740L282 741L286 742L286 741L282 740M433 740L436 744L436 743L433 740M380 741L381 742L380 741M383.333 742.667L383.667 743.333L383.333 742.667M300 744L300 745L303 745L300 744z"/>
<path style="fill:#817a85; stroke:none;" d="M436 744L436 747L437 747L436 744z"/>
<path style="fill:#41405b; stroke:none;" d="M292.667 745.333L293.333 745.667L292.667 745.333M297 745L298 746L297 745M295 746L296 747L295 746M432.333 746.667L432.667 747.333L432.333 746.667M435 746L435 749L436 749L435 746M382 747L383 748L382 747M301 749L302 750L301 749z"/>
<path style="fill:#817a85; stroke:none;" d="M437 749L437 752L438 752L437 749z"/>
<path style="fill:#41405b; stroke:none;" d="M303 750L304 751L303 750M435 751L436 752L435 751M307.667 752.333L308.333 752.667L307.667 752.333M313 752L314 754L310 753L310 754L316 754L313 752M319 752L320 753L319 752M369 752L369 754L371 754L371 752L369 752M432 752L433 753L432 752M434 753L434 757L435 757L434 753M436.333 755.667L436.667 756.333L436.333 755.667z"/>
<path style="fill:#817a85; stroke:none;" d="M438.333 755.667L438.667 756.333L438.333 755.667z"/>
<path style="fill:#41405b; stroke:none;" d="M316.667 756.333L317.333 756.667L316.667 756.333M321 756L322 757L321 756M327 756L328 757L327 756M371.333 756.667L371.667 757.333L371.333 756.667z"/>
<path style="fill:#817a85; stroke:none;" d="M1278 758L1279 759L1278 758z"/>
<path style="fill:#41405b; stroke:none;" d="M435 759L435 762L436 762L435 759M438 759L439 760L438 759M336 760L337 761L336 760z"/>
<path style="fill:#817a85; stroke:none;" d="M439.333 760.667L439.667 761.333L439.333 760.667M1278.33 760.667L1278.67 761.333L1278.33 760.667z"/>
<path style="fill:#41405b; stroke:none;" d="M433 761L433 765L434 765L433 761M330 762L330 763L333 763L330 762M341 762L342 763L341 762M438.333 762.667L438.667 763.333L438.333 762.667M335 764L336 765L335 764M436.333 764.667L436.667 765.333L436.333 764.667M376 765L376 768L377 768L376 765z"/>
<path style="fill:#817a85; stroke:none;" d="M440 765L440 768L441 768L440 765M338 767L339 768L338 767z"/>
<path style="fill:#41405b; stroke:none;" d="M434.667 767.333L435.333 767.667L434.667 767.333M343.667 768.333L344.333 768.667L343.667 768.333M351 768L352 769L351 768M440 768L441 769L440 768M347 769L349 771L349 769L347 769M355 769L356 770L355 769M350.667 771.333L351.333 771.667L350.667 771.333M440.333 771.667L440.667 772.333L440.333 771.667z"/>
<path style="fill:#817a85; stroke:none;" d="M441.333 771.667L441.667 772.333L441.333 771.667z"/>
<path style="fill:#41405b; stroke:none;" d="M356 772L356 774L358 774L356 772M379.333 774.667L379.667 775.333L379.333 774.667M441 775L442 776L441 775z"/>
<path style="fill:#817a85; stroke:none;" d="M1125 775L1126 776L1125 775z"/>
<path style="fill:#41405b; stroke:none;" d="M360 776L361 777L360 776M362 776L363 777L362 776z"/>
<path style="fill:#817a85; stroke:none;" d="M442.333 776.667L442.667 777.333L442.333 776.667z"/>
<path style="fill:#41405b; stroke:none;" d="M365 777L366 778L365 777M367 778L368 779L367 778M375 778L376 779L375 778M441 778L443 781L441 778z"/>
<path style="fill:#817a85; stroke:none;" d="M740 778L740 779L997 779L973 778L921 778L740 778z"/>
<path style="fill:#41405b; stroke:none;" d="M370 779L371 780L370 779z"/>
<path style="fill:#817a85; stroke:none;" d="M195 780L196 781L195 780z"/>
<path style="fill:#41405b; stroke:none;" d="M371.667 780.333L372.333 780.667L371.667 780.333z"/>
<path style="fill:#817a85; stroke:none;" d="M1201 780L1202 781L1201 780M443.333 781.667L443.667 782.333L443.333 781.667z"/>
<path style="fill:#fcfbfb; stroke:none;" d="M1200 781C1197.4 801.155 1187.91 828.298 1168 837C1171.93 868.099 1170 901.63 1170 933C1170 942.07 1169.97 950.982 1170.83 960C1171.11 962.938 1170.04 967.807 1172.03 970.258C1175.6 974.677 1191.69 972 1197 972L1198.99 892L1200 834L1204 834L1206 972L1237 971L1238.09 895L1239 857L1238.68 840.228L1230 835.001L1219.02 825L1206.44 800L1200 781z"/>
<path style="fill:#41405b; stroke:none;" d="M399.333 782.667L399.667 783.333L399.333 782.667M442 783L443 784L442 783M380 784L381 785L380 784M397 784L398 785L397 784M443.333 784.667L443.667 785.333L443.333 784.667z"/>
<path style="fill:#817a85; stroke:none;" d="M1274.33 784.667L1274.67 785.333L1274.33 784.667z"/>
<path style="fill:#41405b; stroke:none;" d="M382.667 785.333L383.333 785.667L382.667 785.333z"/>
<path style="fill:#817a85; stroke:none;" d="M1202 785L1203 786L1202 785z"/>
<path style="fill:#41405b; stroke:none;" d="M385 786L386 787L385 786z"/>
<path style="fill:#817a85; stroke:none;" d="M444.333 786.667L444.667 787.333L444.333 786.667z"/>
<path style="fill:#41405b; stroke:none;" d="M441 787L443 790L441 787z"/>
<path style="fill:#817a85; stroke:none;" d="M1198 788L1199 789L1198 788M1203 788L1204 789L1203 788M388 789L389 790L388 789z"/>
<path style="fill:#41405b; stroke:none;" d="M399.333 789.667L399.667 790.333L399.333 789.667z"/>
<path style="fill:#71709a; stroke:none;" d="M393 791L394 792L393 791z"/>
<path style="fill:#817a85; stroke:none;" d="M445.333 792.667L445.667 793.333L445.333 792.667M397 793L398 794L397 793z"/>
<path style="fill:#41405b; stroke:none;" d="M401 793L401 794L404 795L401 793M440 794L441 795L440 794M442 794L441 801L442 801L442 798L443 798L446 801L442 794M444.333 794.667L444.667 795.333L444.333 794.667M414.667 795.333L415.333 795.667L414.667 795.333M445 796L446 797L445 796z"/>
<path style="fill:#71709a; stroke:none;" d="M740 796L741 797L740 796z"/>
<path style="fill:#41405b; stroke:none;" d="M740 864L997 864L997 796C962.855 797.759 926.1 798.347 892 796L890 803L847 803C845.363 792.816 833.007 796 825 796L764 796C758.722 796 745.867 793.651 741.603 797.028C738.171 799.746 740 810.062 740 814L740 864z"/>
<path style="fill:#817a85; stroke:none;" d="M845 796L846 797L845 796z"/>
<path style="fill:#71709a; stroke:none;" d="M891 796L892 797L891 796M893 796L894 797L893 796M993 796L994 797L993 796z"/>
<path style="fill:#817a85; stroke:none;" d="M1205 796L1206 797L1205 796z"/>
<path style="fill:#41405b; stroke:none;" d="M411 797L413 799L411 797z"/>
<path style="fill:#817a85; stroke:none;" d="M446.333 797.667L446.667 798.333L446.333 797.667M890.333 797.667L890.667 798.333L890.333 797.667M846 798L847 799L846 798z"/>
<path style="fill:#71709a; stroke:none;" d="M846 799L847 800L846 799z"/>
<path style="fill:#817a85; stroke:none;" d="M423 801L424 802L423 801M847 801L848 802L847 801M889 801L890 802L889 801z"/>
<path style="fill:#71709a; stroke:none;" d="M847 802L848 803L847 802M889 802L890 803L889 802z"/>
<path style="fill:#817a85; stroke:none;" d="M454.667 803.333L455.333 803.667L454.667 803.333M459 804L460 805L459 804M1268 804L1269 805L1268 804M461 805L462 806L461 805M1192.33 806.667L1192.67 807.333L1192.33 806.667M467 807L468 808L467 807M203 812L204 813L203 812M1211 812L1212 813L1211 812z"/>
<path style="fill:#71709a; stroke:none;" d="M477 814L478 815L477 814z"/>
<path style="fill:#817a85; stroke:none;" d="M1188 816L1189 817L1188 816M1147 829L1148 830L1147 829M1150.67 832.333L1151.33 832.667L1150.67 832.333M1227 833L1228 834L1227 833M1249 833L1250 834L1249 833M1200 834L1201 835L1200 834z"/>
<path style="fill:#71709a; stroke:none;" d="M1201 834L1202 835L1201 834z"/>
<path style="fill:#41405b; stroke:none;" d="M1202 834C1196.71 841.555 1200.77 856.026 1199.71 865C1195.57 900.107 1198 937.619 1198 973L1170 972L1168 837L1165 837L1162 971L1150 969L1150 1054C1184.6 1054 1220.56 1058.35 1255 1054L1255 970L1245 970L1245 933L1243 838L1240 838L1238 971L1206 973C1206 942.393 1204 911.618 1204 881C1204 867.037 1207.48 847.028 1202 834z"/>
<path style="fill:#817a85; stroke:none;" d="M1203 834L1204 835L1203 834M1171 835L1172 836L1171 835z"/>
<path style="fill:#71709a; stroke:none;" d="M1203 835L1203 843L1204 843L1203 835z"/>
<path style="fill:#817a85; stroke:none;" d="M1230 835L1231 836L1230 835M1233.67 836.333L1234.33 836.667L1233.67 836.333M1162.67 837.333L1163.33 837.667L1162.67 837.333z"/>
<path style="fill:#71709a; stroke:none;" d="M1164 837L1164 843L1165 843L1164 837z"/>
<path style="fill:#817a85; stroke:none;" d="M1199 837L1199 859L1200 859L1199 837z"/>
<path style="fill:#71709a; stroke:none;" d="M1242 837L1243 838L1242 837z"/>
<path style="fill:#817a85; stroke:none;" d="M1243 837L1243 842L1244 842L1243 837M1239 838L1239 853L1240 853L1239 838M493 839L493 842L494 842L493 839M1168 840L1168 864L1169 864L1168 840z"/>
<path style="fill:#71709a; stroke:none;" d="M1243 842L1243 851L1244 851L1243 842z"/>
<path style="fill:#817a85; stroke:none;" d="M213 852L214 853L213 852z"/>
<path style="fill:#71709a; stroke:none;" d="M1239 853L1239 861L1240 861L1239 853z"/>
<path style="fill:#817a85; stroke:none;" d="M215 858L216 859L215 858z"/>
<path style="fill:#71709a; stroke:none;" d="M1199 859L1199 867L1200 867L1199 859z"/>
<path style="fill:#817a85; stroke:none;" d="M490 863L491 864L490 863z"/>
<path style="fill:#71709a; stroke:none;" d="M1168 864L1168 872L1169 872L1168 864M488 866L489 867L488 866z"/>
<path style="fill:#817a85; stroke:none;" d="M489 866L490 867L489 866z"/>
<path style="fill:#41405b; stroke:none;" d="M488 867C475.434 888.739 447.253 891.594 425 896.884C413.784 899.551 402.616 902.76 391 903L391 1044L396 1044C394.36 1055.1 384.59 1070.43 389.742 1081.79C391.815 1086.36 397.804 1086.04 402 1086C413.724 1085.88 427.335 1081.72 438 1077C440.278 1091.3 457.084 1084.79 467 1084L468 1088L474 1086L473 1081C486.106 1079.24 508.322 1069.45 507.355 1053.01C506.565 1039.6 480.429 1049.18 478.603 1036.89C476.588 1023.32 481.507 1005.68 482.83 992C485.408 965.359 486.263 938.667 488.09 912C488.949 899.448 492.93 878.749 488 867z"/>
<path style="fill:#71709a; stroke:none;" d="M487 868L488 869L487 868z"/>
<path style="fill:#817a85; stroke:none;" d="M489 868L489 890L490 890L489 868M1163 870L1163 892L1164 892L1163 870M1204 871L1204 893L1205 893L1204 871z"/>
<path style="fill:#71709a; stroke:none;" d="M484 872L485 873L484 872z"/>
<path style="fill:#817a85; stroke:none;" d="M1244 878L1244 901L1245 901L1244 878z"/>
<path style="fill:#71709a; stroke:none;" d="M475 881L476 882L475 881M472 882L473 883L472 882z"/>
<path style="fill:#41405b; stroke:none;" d="M740 882L740 949L997 949L997 882L891 882L890 889L851.044 888.682L840.982 882.059L740 882z"/>
<path style="fill:#817a85; stroke:none;" d="M845 882L846 883L845 882M890.333 882.667L890.667 883.333L890.333 882.667z"/>
<path style="fill:#71709a; stroke:none;" d="M469 884L470 885L469 884z"/>
<path style="fill:#817a85; stroke:none;" d="M846 884L847 885L846 884z"/>
<path style="fill:#71709a; stroke:none;" d="M890 884L891 885L890 884M467 885L468 886L467 885M846 885L847 886L846 885M464 886L465 887L464 886z"/>
<path style="fill:#817a85; stroke:none;" d="M889 886C880.849 892.176 858.181 888 848 888L848 889L880 889C882.791 889 889.668 890.055 889 886z"/>
<path style="fill:#71709a; stroke:none;" d="M462 887L463 888L462 887z"/>
<path style="fill:#817a85; stroke:none;" d="M847 887L848 888L847 887M456 888L457 889L456 888z"/>
<path style="fill:#71709a; stroke:none;" d="M457 888L458 889L457 888M889 888L890 889L889 888M454 889L455 890L454 889z"/>
<path style="fill:#817a85; stroke:none;" d="M244 890L245 891L244 890z"/>
<path style="fill:#71709a; stroke:none;" d="M448.667 890.333L449.333 890.667L448.667 890.333M447 891L448 892L447 891z"/>
<path style="fill:#817a85; stroke:none;" d="M1238 891L1238 913L1239 913L1238 891M248.667 892.333L249.333 892.667L248.667 892.333z"/>
<path style="fill:#71709a; stroke:none;" d="M441.667 892.333L442.333 892.667L441.667 892.333M1163 892L1163 900L1164 900L1163 892M1204 893L1204 900L1205 900L1204 893z"/>
<path style="fill:#817a85; stroke:none;" d="M433 894L434 895L433 894z"/>
<path style="fill:#71709a; stroke:none;" d="M434 894L435 895L434 894z"/>
<path style="fill:#817a85; stroke:none;" d="M260 896L261 897L260 896M425 896L426 897L425 896z"/>
<path style="fill:#71709a; stroke:none;" d="M426 896L427 897L426 896z"/>
<path style="fill:#817a85; stroke:none;" d="M1198 897L1198 917L1199 917L1198 897z"/>
<path style="fill:#71709a; stroke:none;" d="M265 898L266 899L265 898z"/>
<path style="fill:#41405b; stroke:none;" d="M266 898C249.653 934.878 239.448 975.73 226.645 1014C218.91 1037.12 206.565 1061.86 203 1086L209 1088L275 900L266 898z"/>
<path style="fill:#71709a; stroke:none;" d="M267.667 898.333L268.333 898.667L267.667 898.333z"/>
<path style="fill:#817a85; stroke:none;" d="M416 898L417 899L416 898z"/>
<path style="fill:#71709a; stroke:none;" d="M417.667 898.333L418.333 898.667L417.667 898.333M271 899L272 900L271 899M415 899L416 900L415 899z"/>
<path style="fill:#817a85; stroke:none;" d="M264 900L265 901L264 900M408 900L409 901L408 900z"/>
<path style="fill:#71709a; stroke:none;" d="M409 900L410 901L409 900M439 900L440 901L439 900z"/>
<path style="fill:#817a85; stroke:none;" d="M1169 900L1169 922L1170 922L1169 900z"/>
<path style="fill:#71709a; stroke:none;" d="M264 901L265 902L264 901M405 901L406 902L405 901z"/>
<path style="fill:#817a85; stroke:none;" d="M439 901L439 908L440 908L439 901z"/>
<path style="fill:#71709a; stroke:none;" d="M1244 901L1244 909L1245 909L1244 901z"/>
<path style="fill:#817a85; stroke:none;" d="M274 902L275 903L274 902M290 902L290 903L293 903L290 902z"/>
<path style="fill:#71709a; stroke:none;" d="M395 902L395 903L398 903L395 902z"/>
<path style="fill:#817a85; stroke:none;" d="M263 903L264 904L263 903z"/>
<path style="fill:#71709a; stroke:none;" d="M263 904L264 905L263 904M273 904L274 905L273 904z"/>
<path style="fill:#817a85; stroke:none;" d="M379 904L379 905L382 905L379 904M273 905L274 906L273 905M262 906L263 907L262 906z"/>
<path style="fill:#71709a; stroke:none;" d="M324.667 906.333L325.333 906.667L324.667 906.333z"/>
<path style="fill:#41405b; stroke:none;" d="M325 1130L332 1130L334 907L325.028 907.832L324 921L324.996 959L325 1130z"/>
<path style="fill:#71709a; stroke:none;" d="M327 906L327 907L334 907L327 906z"/>
<path style="fill:#817a85; stroke:none;" d="M334 906L334 907L358 907L334 906M359 906L360 907L359 906z"/>
<path style="fill:#71709a; stroke:none;" d="M262 907L263 908L262 907M272 907L273 908L272 907z"/>
<path style="fill:#817a85; stroke:none;" d="M272 908L273 909L272 908z"/>
<path style="fill:#fcfbfb; stroke:none;" d="M439 908C439 932.711 433.415 957.86 439 982L440 982L440 931L439 908z"/>
<path style="fill:#71709a; stroke:none;" d="M488 908L488 911L489 911L488 908z"/>
<path style="fill:#817a85; stroke:none;" d="M261 909L262 910L261 909z"/>
<path style="fill:#71709a; stroke:none;" d="M261 910L262 911L261 910z"/>
<path style="fill:#817a85; stroke:none;" d="M271.333 910.667L271.667 911.333L271.333 910.667M488 911L488 918L489 918L488 911M260 912L261 913L260 912z"/>
<path style="fill:#71709a; stroke:none;" d="M260 913L261 914L260 913z"/>
<path style="fill:#817a85; stroke:none;" d="M270 913L271 914L270 913z"/>
<path style="fill:#71709a; stroke:none;" d="M1238 913L1238 921L1239 921L1238 913z"/>
<path style="fill:#817a85; stroke:none;" d="M259 915L260 916L259 915M269 916L270 917L269 916z"/>
<path style="fill:#71709a; stroke:none;" d="M1198 917L1198 925L1199 925L1198 917z"/>
<path style="fill:#817a85; stroke:none;" d="M258 918L259 919L258 918z"/>
<path style="fill:#71709a; stroke:none;" d="M268 918L269 919L268 918z"/>
<path style="fill:#817a85; stroke:none;" d="M268 919L269 920L268 919z"/>
<path style="fill:#71709a; stroke:none;" d="M438 919L438 922L439 922L438 919z"/>
<path style="fill:#817a85; stroke:none;" d="M257 921L258 922L257 921z"/>
<path style="fill:#71709a; stroke:none;" d="M267 921L268 922L267 921M257 922L258 923L257 922z"/>
<path style="fill:#817a85; stroke:none;" d="M267 922L268 923L267 922M438 922L438 928L439 928L438 922z"/>
<path style="fill:#71709a; stroke:none;" d="M1169 922L1169 930L1170 930L1169 922z"/>
<path style="fill:#817a85; stroke:none;" d="M256 924L257 925L256 924z"/>
<path style="fill:#71709a; stroke:none;" d="M266 924L267 925L266 924M256 925L257 926L256 925z"/>
<path style="fill:#817a85; stroke:none;" d="M266 925L267 926L266 925M255 927L256 928L255 927z"/>
<path style="fill:#71709a; stroke:none;" d="M265 927L266 928L265 927M487.333 928.667L487.667 929.333L487.333 928.667z"/>
<path style="fill:#817a85; stroke:none;" d="M1162 928L1162 951L1163 951L1162 928M254 930L255 931L254 930M264 930L265 931L264 930M487 930L487 936L488 936L487 930M1205 931L1205 954L1206 954L1205 931M253 933L254 934L253 933M263 933L264 934L263 933z"/>
<path style="fill:#71709a; stroke:none;" d="M253 934L254 935L253 934z"/>
<path style="fill:#817a85; stroke:none;" d="M252 936L253 937L252 936M262 936L263 937L262 936z"/>
<path style="fill:#71709a; stroke:none;" d="M252 937L253 938L252 937M437.333 937.667L437.667 938.333L437.333 937.667M261 938L262 939L261 938M333 938L333 952L334 952L333 938z"/>
<path style="fill:#817a85; stroke:none;" d="M251 939L252 940L251 939M261 939L262 940L261 939M437 939L437 944L438 944L437 939M1245 939L1245 962L1246 962L1245 939z"/>
<path style="fill:#71709a; stroke:none;" d="M260 941L261 942L260 941z"/>
<path style="fill:#817a85; stroke:none;" d="M250 942L251 943L250 942M260 942L261 943L260 942z"/>
<path style="fill:#71709a; stroke:none;" d="M259 944L260 945L259 944M486.333 944.667L486.667 945.333L486.333 944.667z"/>
<path style="fill:#817a85; stroke:none;" d="M249 945L250 946L249 945M259 945L260 946L259 945M486 946L486 951L487 951L486 946M258 947L259 948L258 947M248 948L249 949L248 948M1237 948L1237 969L1238 969L1237 948z"/>
<path style="fill:#71709a; stroke:none;" d="M740 949L740 950L997 950L973 949L921 949L740 949z"/>
<path style="fill:#817a85; stroke:none;" d="M257 950L258 951L257 950M247 951L248 952L247 951z"/>
<path style="fill:#71709a; stroke:none;" d="M1162 951L1162 961L1163 961L1162 951M324 952L324 1008L325 1008L325 970L324 952z"/>
<path style="fill:#817a85; stroke:none;" d="M333 952L333 992L334 992C334 980.566 337.411 962.512 333 952z"/>
<path style="fill:#71709a; stroke:none;" d="M436.333 952.667L436.667 953.333L436.333 952.667z"/>
<path style="fill:#817a85; stroke:none;" d="M256 953L257 954L256 953M246 954L247 955L246 954M436 954L436 958L437 958L436 954z"/>
<path style="fill:#71709a; stroke:none;" d="M1205 954L1205 962L1206 962L1205 954z"/>
<path style="fill:#817a85; stroke:none;" d="M255 956L256 957L255 956M1197 956L1197 972L1184 972L1184 973C1195.4 973 1202.45 968.984 1197 956M245 957L246 958L245 957M1170 957C1170 961.912 1168.44 969.041 1173 972L1173 971L1170 957z"/>
<path style="fill:#71709a; stroke:none;" d="M254 958L255 959L254 958M485 958L486 959L485 958z"/>
<path style="fill:#817a85; stroke:none;" d="M254 959L255 960L254 959M485 959L485 964L486 964L485 959M244 960L245 961L244 960z"/>
<path style="fill:#71709a; stroke:none;" d="M253 961L254 962L253 961z"/>
<path style="fill:#817a85; stroke:none;" d="M253 962L254 963L253 962z"/>
<path style="fill:#71709a; stroke:none;" d="M1245 962L1245 967L1246 967L1245 962z"/>
<path style="fill:#817a85; stroke:none;" d="M243 963L244 964L243 963M252 964L253 965L252 964M242.333 965.667L242.667 966.333L242.333 965.667z"/>
<path style="fill:#71709a; stroke:none;" d="M435 965L436 966L435 965z"/>
<path style="fill:#817a85; stroke:none;" d="M435 966L435 970L436 970L435 966M251 967L252 968L251 967M740 967L740 968L845 968L813 967L740 967M890 970L891 970C897.361 965.181 912.177 968 920 968L997 968C990.081 965.097 979.48 967 972 967L915 967C908.662 967 893.752 964.212 890 970M241.333 968.667L241.667 969.333L241.333 968.667z"/>
<path style="fill:#41405b; stroke:none;" d="M740 968L740 1035L997 1035L997 968L891 968L889 975L851.044 973.852L841.945 968.148L808 968L740 968z"/>
<path style="fill:#71709a; stroke:none;" d="M845 968L846 969L845 968M1152 969L1153 970L1152 969z"/>
<path style="fill:#817a85; stroke:none;" d="M1153.67 969.333L1154.33 969.667L1153.67 969.333z"/>
<path style="fill:#71709a; stroke:none;" d="M1237 969L1238 970L1237 969M1245 969L1246 970L1245 969z"/>
<path style="fill:#817a85; stroke:none;" d="M1249 969L1249 970L1252 970L1249 969z"/>
<path style="fill:#71709a; stroke:none;" d="M1252 969L1252 970L1255 970L1252 969z"/>
<path style="fill:#817a85; stroke:none;" d="M250 970L251 971L250 970z"/>
<path style="fill:#71709a; stroke:none;" d="M435 970L436 971L435 970M484.333 970.667L484.667 971.333L484.333 970.667z"/>
<path style="fill:#817a85; stroke:none;" d="M846 970L847 971L846 970z"/>
<path style="fill:#71709a; stroke:none;" d="M890 970L891 971L890 970M1158.67 970.333L1159.33 970.667L1158.67 970.333z"/>
<path style="fill:#817a85; stroke:none;" d="M1160.67 970.333L1161.33 970.667L1160.67 970.333M1237 970L1238 971L1237 970M240 971L241 972L240 971z"/>
<path style="fill:#71709a; stroke:none;" d="M846 971L847 972L846 971M1170 971L1171 972L1170 971z"/>
<path style="fill:#817a85; stroke:none;" d="M1227 971L1227 972L1232 972L1227 971z"/>
<path style="fill:#71709a; stroke:none;" d="M1232.67 971.333L1233.33 971.667L1232.67 971.333M240 972L241 973L240 972z"/>
<path style="fill:#817a85; stroke:none;" d="M484 972L484 976L485 976L484 972M847.333 972.667L847.667 973.333L847.333 972.667M889.333 972.667L889.667 973.333L889.333 972.667z"/>
<path style="fill:#71709a; stroke:none;" d="M1182.67 972.333L1183.33 972.667L1182.67 972.333M1197 972L1198 973L1197 972z"/>
<path style="fill:#817a85; stroke:none;" d="M1206 972L1206 973L1216 973L1206 972z"/>
<path style="fill:#71709a; stroke:none;" d="M1216.67 972.333L1217.33 972.667L1216.67 972.333z"/>
<path style="fill:#817a85; stroke:none;" d="M249 973L250 974L249 973M436 973L437 974L436 973M239.333 974.667L239.667 975.333L239.333 974.667z"/>
<path style="fill:#71709a; stroke:none;" d="M888 974L889 975L888 974M1254 974L1255 975L1254 974M248 975L249 976L248 975z"/>
<path style="fill:#817a85; stroke:none;" d="M248 976L249 977L248 976M437 976L438 977L437 976M238 977L239 978L238 977z"/>
<path style="fill:#71709a; stroke:none;" d="M238 978L239 979L238 978M247 978L248 979L247 978z"/>
<path style="fill:#817a85; stroke:none;" d="M247 979L248 980L247 979M438 979L439 980L438 979M237 980L238 981L237 980z"/>
<path style="fill:#71709a; stroke:none;" d="M237 981L238 982L237 981M246 981L247 982L246 981z"/>
<path style="fill:#817a85; stroke:none;" d="M439 982L440 983L439 982M236 983L237 984L236 983z"/>
<path style="fill:#71709a; stroke:none;" d="M483 983L484 984L483 983M236 984L237 985L236 984z"/>
<path style="fill:#817a85; stroke:none;" d="M245 984L246 985L245 984M483 984L483 988L484 988L483 984M235 986L236 987L235 986z"/>
<path style="fill:#71709a; stroke:none;" d="M235 987L236 988L235 987z"/>
<path style="fill:#817a85; stroke:none;" d="M244 987L245 988L244 987M234 989L235 990L234 989z"/>
<path style="fill:#71709a; stroke:none;" d="M234 990L235 991L234 990z"/>
<path style="fill:#817a85; stroke:none;" d="M243 990L244 991L243 990M233 992L234 993L233 992z"/>
<path style="fill:#71709a; stroke:none;" d="M242 992L243 993L242 992z"/>
<path style="fill:#817a85; stroke:none;" d="M433 992L435 995L433 992z"/>
<path style="fill:#71709a; stroke:none;" d="M233 993L234 994L233 993z"/>
<path style="fill:#817a85; stroke:none;" d="M242 993L243 994L242 993z"/>
<path style="fill:#fcfbfb; stroke:none;" d="M433 994L430.424 1025L430.067 1038.58L440 1044C440 1028.89 443.853 1006.31 433 994z"/>
<path style="fill:#71709a; stroke:none;" d="M482 994L483 995L482 994z"/>
<path style="fill:#817a85; stroke:none;" d="M232 995L233 996L232 995z"/>
<path style="fill:#71709a; stroke:none;" d="M241 995L242 996L241 995z"/>
<path style="fill:#817a85; stroke:none;" d="M482 995L482 999L483 999L482 995z"/>
<path style="fill:#71709a; stroke:none;" d="M232 996L233 997L232 996z"/>
<path style="fill:#817a85; stroke:none;" d="M241 996L242 997L241 996z"/>
<path style="fill:#71709a; stroke:none;" d="M435 996L436 997L435 996z"/>
<path style="fill:#817a85; stroke:none;" d="M435 997L436 998L435 997M231 998L232 999L231 998z"/>
<path style="fill:#71709a; stroke:none;" d="M240 998L241 999L240 998M231 999L232 1000L231 999z"/>
<path style="fill:#817a85; stroke:none;" d="M240 999L241 1000L240 999z"/>
<path style="fill:#71709a; stroke:none;" d="M436 999L437 1000L436 999M432 1000L433 1001L432 1000z"/>
<path style="fill:#817a85; stroke:none;" d="M436 1000L437 1001L436 1000M230 1001L231 1002L230 1001M239 1001L240 1002L239 1001M432 1001L432 1005L433 1005L432 1001z"/>
<path style="fill:#71709a; stroke:none;" d="M230 1002L231 1003L230 1002M437 1002L438 1003L437 1002z"/>
<path style="fill:#817a85; stroke:none;" d="M437 1003L438 1004L437 1003M229 1004L230 1005L229 1004M238 1004L239 1005L238 1004z"/>
<path style="fill:#71709a; stroke:none;" d="M229 1005L230 1006L229 1005z"/>
<path style="fill:#817a85; stroke:none;" d="M438.333 1005.67L438.667 1006.33L438.333 1005.67z"/>
<path style="fill:#71709a; stroke:none;" d="M481 1005L482 1006L481 1005M237 1006L238 1007L237 1006z"/>
<path style="fill:#817a85; stroke:none;" d="M481 1006L481 1010L482 1010L481 1006M228 1007L229 1008L228 1007M237 1007L238 1008L237 1007M324 1008L324 1130L325 1130L325 1045C325 1034.37 328.108 1017.79 324 1008M439 1008L440 1009L439 1008z"/>
<path style="fill:#71709a; stroke:none;" d="M236 1009L237 1010L236 1009z"/>
<path style="fill:#817a85; stroke:none;" d="M227 1010L228 1011L227 1010M236 1010L237 1011L236 1010z"/>
<path style="fill:#71709a; stroke:none;" d="M227 1011L228 1012L227 1011M431 1011L432 1012L431 1011M235 1012L236 1013L235 1012z"/>
<path style="fill:#817a85; stroke:none;" d="M431 1012L431 1016L432 1016L431 1012M226 1013L227 1014L226 1013M235 1013L236 1014L235 1013z"/>
<path style="fill:#71709a; stroke:none;" d="M226 1014L227 1015L226 1014M234 1015L235 1016L234 1015z"/>
<path style="fill:#817a85; stroke:none;" d="M225 1016L226 1017L225 1016M234 1016L235 1017L234 1016z"/>
<path style="fill:#71709a; stroke:none;" d="M480 1016L481 1017L480 1016M225 1017L226 1018L225 1017z"/>
<path style="fill:#817a85; stroke:none;" d="M480 1017L480 1020L481 1020L480 1017M233 1018L234 1019L233 1018M224 1019L225 1020L224 1019M232 1021L233 1022L232 1021z"/>
<path style="fill:#71709a; stroke:none;" d="M430 1021L431 1022L430 1021z"/>
<path style="fill:#817a85; stroke:none;" d="M223 1022L224 1023L223 1022M430 1022L430 1025L431 1025L430 1022M231 1024L232 1025L231 1024M222 1025L223 1026L222 1025z"/>
<path style="fill:#71709a; stroke:none;" d="M479 1025L480 1026L479 1025M230 1026L231 1027L230 1026z"/>
<path style="fill:#817a85; stroke:none;" d="M479 1026L479 1030L480 1030L479 1026M230 1027L231 1028L230 1027M221 1028L222 1029L221 1028z"/>
<path style="fill:#71709a; stroke:none;" d="M229 1029L230 1030L229 1029z"/>
<path style="fill:#817a85; stroke:none;" d="M229 1030L230 1031L229 1030M220 1031L221 1032L220 1031z"/>
<path style="fill:#71709a; stroke:none;" d="M429 1031L430 1032L429 1031M440 1031L441 1032L440 1031z"/>
<path style="fill:#817a85; stroke:none;" d="M228.333 1032.67L228.667 1033.33L228.333 1032.67M429 1032L429 1035L430 1035L429 1032M219 1034L220 1035L219 1034M227 1035L228 1036L227 1035z"/>
<path style="fill:#71709a; stroke:none;" d="M478 1035L479 1036L478 1035z"/>
<path style="fill:#817a85; stroke:none;" d="M740 1035L740 1036L997 1036L973 1035L921 1035L740 1035M478 1036L478 1040L479 1040L478 1036M218 1037L219 1038L218 1037M226 1038L227 1039L226 1038M429 1039L430 1040L429 1039M217 1040L218 1041L217 1040z"/>
<path style="fill:#71709a; stroke:none;" d="M332 1040L332 1056L333 1056L332 1040z"/>
<path style="fill:#817a85; stroke:none;" d="M431 1040L432 1041L431 1040z"/>
<path style="fill:#71709a; stroke:none;" d="M480 1040L481 1041L480 1040z"/>
<path style="fill:#817a85; stroke:none;" d="M481 1040L482 1041L481 1040M225 1041L226 1042L225 1041z"/>
<path style="fill:#71709a; stroke:none;" d="M433 1041L434 1042L433 1041z"/>
<path style="fill:#817a85; stroke:none;" d="M434 1041L435 1042L434 1041z"/>
<path style="fill:#71709a; stroke:none;" d="M440 1041L441 1042L440 1041z"/>
<path style="fill:#817a85; stroke:none;" d="M483 1041L484 1042L483 1041M436 1042L437 1043L436 1042z"/>
<path style="fill:#71709a; stroke:none;" d="M485 1042L486 1043L485 1042z"/>
<path style="fill:#817a85; stroke:none;" d="M486 1042L487 1043L486 1042M216 1043L217 1044L216 1043z"/>
<path style="fill:#71709a; stroke:none;" d="M224 1043L225 1044L224 1043M438 1043L439 1044L438 1043z"/>
<path style="fill:#817a85; stroke:none;" d="M488 1043L489 1044L488 1043M224 1044L225 1045L224 1044z"/>
<path style="fill:#71709a; stroke:none;" d="M391 1044L391 1045L394 1045L391 1044M395 1044L396 1045L395 1044M490 1044L491 1045L490 1044z"/>
<path style="fill:#817a85; stroke:none;" d="M491 1044L492 1045L491 1044z"/>
<path style="fill:#71709a; stroke:none;" d="M499 1045L500 1046L499 1045z"/>
<path style="fill:#817a85; stroke:none;" d="M500 1045L501 1046L500 1045M215 1046L216 1047L215 1046z"/>
<path style="fill:#71709a; stroke:none;" d="M223 1046L224 1047L223 1046z"/>
<path style="fill:#817a85; stroke:none;" d="M395.333 1046.67L395.667 1047.33L395.333 1046.67M503 1046L504 1047L503 1046M223 1047L224 1048L223 1047z"/>
<path style="fill:#71709a; stroke:none;" d="M504 1047L505 1048L504 1047z"/>
<path style="fill:#817a85; stroke:none;" d="M214 1049L215 1050L214 1049z"/>
<path style="fill:#71709a; stroke:none;" d="M222 1049L223 1050L222 1049z"/>
<path style="fill:#817a85; stroke:none;" d="M394 1049L395 1050L394 1049M222 1050L223 1051L222 1050z"/>
<path style="fill:#71709a; stroke:none;" d="M394 1050L395 1051L394 1050z"/>
<path style="fill:#817a85; stroke:none;" d="M507 1050L508 1051L507 1050z"/>
<path style="fill:#71709a; stroke:none;" d="M507 1051L508 1052L507 1051z"/>
<path style="fill:#817a85; stroke:none;" d="M213 1052L214 1053L213 1052M221 1052L222 1053L221 1052M393 1052L394 1053L393 1052z"/>
<path style="fill:#71709a; stroke:none;" d="M393 1053L394 1054L393 1053M507 1054L508 1055L507 1054z"/>
<path style="fill:#817a85; stroke:none;" d="M1150 1054L1150 1055L1166 1055L1150 1054z"/>
<path style="fill:#71709a; stroke:none;" d="M1166 1054L1166 1055L1176 1055L1166 1054M1251 1054L1251 1055L1254 1055L1251 1054z"/>
<path style="fill:#817a85; stroke:none;" d="M1254 1054L1255 1055L1254 1054M212 1055L213 1056L212 1055M220 1055L221 1056L220 1055M392 1055L393 1056L392 1055M507 1055L508 1056L507 1055M1202 1055L1202 1056L1237 1056L1202 1055M332 1056L332 1096L333 1096C333 1084.57 336.411 1066.51 332 1056z"/>
<path style="fill:#71709a; stroke:none;" d="M392 1056L393 1057L392 1056z"/>
<path style="fill:#817a85; stroke:none;" d="M211 1058L212 1059L211 1058M219 1058L220 1059L219 1058M506 1058L507 1059L506 1058M391 1059L392 1060L391 1059z"/>
<path style="fill:#71709a; stroke:none;" d="M218 1060L219 1061L218 1060z"/>
<path style="fill:#817a85; stroke:none;" d="M505 1060L506 1061L505 1060M210 1061L211 1062L210 1061M218 1061L219 1062L218 1061M504 1062L505 1063L504 1062z"/>
<path style="fill:#71709a; stroke:none;" d="M217 1063L218 1064L217 1063z"/>
<path style="fill:#817a85; stroke:none;" d="M390 1063L391 1064L390 1063z"/>
<path style="fill:#71709a; stroke:none;" d="M503 1063L504 1064L503 1063M209 1064L210 1065L209 1064z"/>
<path style="fill:#817a85; stroke:none;" d="M217 1064L218 1065L217 1064M208.333 1066.67L208.667 1067.33L208.333 1066.67z"/>
<path style="fill:#71709a; stroke:none;" d="M216 1066L217 1067L216 1066z"/>
<path style="fill:#817a85; stroke:none;" d="M501 1066L502 1067L501 1066M216 1067L217 1068L216 1067M389.333 1067.67L389.667 1068.33L389.333 1067.67M500 1067L501 1068L500 1067M499 1068L500 1069L499 1068M207.333 1069.67L207.667 1070.33L207.333 1069.67z"/>
<path style="fill:#71709a; stroke:none;" d="M215 1069L216 1070L215 1069M498 1069L499 1070L498 1069M497 1070L498 1071L497 1070z"/>
<path style="fill:#817a85; stroke:none;" d="M496 1071L497 1072L496 1071M206 1072L207 1073L206 1072M214 1072L215 1073L214 1072M495 1072L496 1073L495 1072z"/>
<path style="fill:#71709a; stroke:none;" d="M206 1073L207 1074L206 1073z"/>
<path style="fill:#817a85; stroke:none;" d="M388 1074L388 1080L389 1080L388 1074M492 1074L493 1075L492 1074M205 1075L206 1076L205 1075M213 1075L214 1076L213 1075z"/>
<path style="fill:#71709a; stroke:none;" d="M205 1076L206 1077L205 1076z"/>
<path style="fill:#817a85; stroke:none;" d="M489 1076L490 1077L489 1076M437 1077L438 1078L437 1077z"/>
<path style="fill:#71709a; stroke:none;" d="M486 1077L487 1078L486 1077z"/>
<path style="fill:#817a85; stroke:none;" d="M204 1078L205 1079L204 1078M212 1078L213 1079L212 1078z"/>
<path style="fill:#71709a; stroke:none;" d="M434 1078L435 1079L434 1078z"/>
<path style="fill:#817a85; stroke:none;" d="M435 1078L436 1079L435 1078M484 1078L485 1079L484 1078z"/>
<path style="fill:#71709a; stroke:none;" d="M204 1079L205 1080L204 1079M431 1079L432 1080L431 1079z"/>
<path style="fill:#817a85; stroke:none;" d="M432 1079L433 1080L432 1079z"/>
<path style="fill:#71709a; stroke:none;" d="M480 1079L481 1080L480 1079z"/>
<path style="fill:#817a85; stroke:none;" d="M481 1079L482 1080L481 1079z"/>
<path style="fill:#71709a; stroke:none;" d="M427 1080L428 1081L427 1080z"/>
<path style="fill:#817a85; stroke:none;" d="M428 1080L429 1081L428 1080z"/>
<path style="fill:#71709a; stroke:none;" d="M438 1080L439 1081L438 1080M476 1080L477 1081L476 1080z"/>
<path style="fill:#817a85; stroke:none;" d="M477 1080L478 1081L477 1080M203 1081L204 1082L203 1081M211 1081L212 1082L211 1081M424.667 1081.33L425.333 1081.67L424.667 1081.33M438 1081L439 1082L438 1081z"/>
<path style="fill:#71709a; stroke:none;" d="M473 1081L474 1082L473 1081z"/>
<path style="fill:#817a85; stroke:none;" d="M474 1081L475 1082L474 1081z"/>
<path style="fill:#71709a; stroke:none;" d="M203 1082L204 1083L203 1082z"/>
<path style="fill:#817a85; stroke:none;" d="M389 1082L390 1083L389 1082M421 1082L422 1083L421 1082M473.333 1082.67L473.667 1083.33L473.333 1082.67z"/>
<path style="fill:#71709a; stroke:none;" d="M210 1083L211 1084L210 1083M417 1083L418 1084L417 1083z"/>
<path style="fill:#817a85; stroke:none;" d="M418 1083L419 1084L418 1083M439 1083L440 1084L439 1083M202.333 1084.67L202.667 1085.33L202.333 1084.67M210 1084L211 1085L210 1084z"/>
<path style="fill:#71709a; stroke:none;" d="M391 1084L392 1085L391 1084z"/>
<path style="fill:#817a85; stroke:none;" d="M413.667 1084.33L414.333 1084.67L413.667 1084.33M440 1084L441 1085L440 1084z"/>
<path style="fill:#71709a; stroke:none;" d="M462 1084L463 1085L462 1084z"/>
<path style="fill:#817a85; stroke:none;" d="M463.667 1084.33L464.333 1084.67L463.667 1084.33z"/>
<path style="fill:#71709a; stroke:none;" d="M466 1084L467 1085L466 1084z"/>
<path style="fill:#817a85; stroke:none;" d="M393 1085L394 1086L393 1085z"/>
<path style="fill:#71709a; stroke:none;" d="M408 1085L409 1086L408 1085z"/>
<path style="fill:#817a85; stroke:none;" d="M409 1085L410 1086L409 1085M442 1085L443 1086L442 1085z"/>
<path style="fill:#71709a; stroke:none;" d="M457 1085L458 1086L457 1085z"/>
<path style="fill:#817a85; stroke:none;" d="M458.667 1085.33L459.333 1085.67L458.667 1085.33M466 1085L467 1086L466 1085M474 1085L475 1086L474 1085M203 1086L204 1087L203 1086z"/>
<path style="fill:#71709a; stroke:none;" d="M204 1086L205 1087L204 1086z"/>
<path style="fill:#817a85; stroke:none;" d="M209.333 1086.67L209.667 1087.33L209.333 1086.67M397 1086L397 1087L404 1087L397 1086M446 1086L446 1087L453 1087L446 1086z"/>
<path style="fill:#71709a; stroke:none;" d="M472 1086L473 1087L472 1086z"/>
<path style="fill:#817a85; stroke:none;" d="M473 1086L474 1087L473 1086M206 1087L207 1088L206 1087z"/>
<path style="fill:#71709a; stroke:none;" d="M467 1087L468 1088L467 1087M469 1087L470 1088L469 1087z"/>
<path style="fill:#817a85; stroke:none;" d="M470 1087L471 1088L470 1087z"/>
</svg>
